5d,bc,00,01,04,00,00,00,00,00,00,00,00,00,00,00,00,00,00,00,00,00,00,00,00,00,00,00,00,00,ff,ff,ff LED6
5d,bc,00,01,04,00,00,00,00,00,00,00,00,00,00,00,00,00,00,00,00,00,00,00,00,00,00,ff,ff,ff,00,00,00 LED5
5d,bc,00,01,04,00,00,00,00,00,00,00,00,00,00,00,00,00,00,00,00,00,00,00,ff,ff,ff,00,00,00,00,00,00 LED4
5d,bc,00,01,04,00,00,00,00,00,00,00,00,00,00,00,00,00,00,00,00,ff,ff,ff,00,00,00,00,00,00,00,00,00 LED3
5d,bc,00,01,04,00,00,00,00,00,00,00,00,00,00,00,00,00,ff,ff,ff,00,00,00,00,00,00,00,00,00,00,00,00 LED2
5d,bc,00,01,04,00,00,00,00,00,00,00,00,00,00,ff,ff,ff,00,00,00,00,00,00,00,00,00,00,00,00,00,00,00 LED1
