FAIL to resume the device:

Nov 09 22:42:53 fedora kernel: xhci_hcd:xhci_set_link_state:799: xhci_hcd 0000:09:00.3: Set port 1-3 link state, portsc: 0x603, write 0x10661
Nov 09 22:42:53 fedora kernel: usbcore:usb_port_suspend:3500: usb 1-3: usb suspend, wakeup 1
Nov 09 22:42:53 fedora kernel: xhci_hcd:handle_port_status:1906: xhci_hcd 0000:09:00.3: Port change event, 1-3, id 3, portsc: 0x206e1
Nov 09 22:42:53 fedora kernel: xhci_hcd:xhci_hub_control:1271: xhci_hcd 0000:09:00.3: Get port status 1-3 read: 0x206e1, return 0x10101
Nov 09 22:42:53 fedora kernel: xhci_hcd:xhci_hub_control:1271: xhci_hcd 0000:09:00.3: Get port status 1-3 read: 0x6e1, return 0x101
Nov 09 22:42:53 fedora kernel: usbcore:wait_for_connected:3657: usb 1-3: Waited 0ms for CONNECT
Nov 09 22:42:53 fedora kernel: usbcore:finish_port_resume:3539: usb 1-3: finish reset-resume
Nov 09 22:42:53 fedora kernel: xhci_hcd:xhci_hub_control:1503: xhci_hcd 0000:09:00.3: set port reset, actual port 1-3 status  = 0x6f1
Nov 09 22:42:53 fedora kernel: xhci_hcd:handle_port_status:1906: xhci_hcd 0000:09:00.3: Port change event, 1-3, id 3, portsc: 0x200603
Nov 09 22:42:53 fedora kernel: xhci_hcd:xhci_hub_control:1271: xhci_hcd 0000:09:00.3: Get port status 1-3 read: 0x2202a0, return 0x110100
Nov 09 22:42:53 fedora kernel: xhci_hcd:xhci_hub_control:1271: xhci_hcd 0000:09:00.3: Get port status 1-3 read: 0x2202a0, return 0x110100
Nov 09 22:42:53 fedora kernel: xhci_hcd:xhci_hub_control:1271: xhci_hcd 0000:09:00.3: Get port status 1-3 read: 0x2202a0, return 0x110100
Nov 09 22:42:53 fedora kernel: xhci_hcd:xhci_hub_control:1271: xhci_hcd 0000:09:00.3: Get port status 1-3 read: 0x2202a0, return 0x110100
Nov 09 22:42:53 fedora kernel: xhci_hcd:xhci_hub_control:1271: xhci_hcd 0000:09:00.3: Get port status 1-3 read: 0x2202a0, return 0x110100
Nov 09 22:42:53 fedora kernel: xhci_hcd:xhci_disable_port:607: xhci_hcd 0000:09:00.3: disable port 1-3, portsc: 0x202a0
Nov 09 22:42:53 fedora kernel: xhci_hcd:xhci_disable_port:607: xhci_hcd 0000:09:00.3: disable port 1-3, portsc: 0x202a0
Nov 09 22:42:53 fedora kernel: usbcore:finish_port_resume:3587: usb 1-3: gone after usb resume? status -19
Nov 09 22:42:53 fedora kernel: usbcore:usb_port_resume:3769: usb 1-3: can't resume, status -19
Nov 09 22:42:53 fedora kernel: xhci_hcd:xhci_disable_port:607: xhci_hcd 0000:09:00.3: disable port 1-3, portsc: 0x202a0
Nov 09 22:42:53 fedora kernel: xhci_hcd:xhci_hub_control:1271: xhci_hcd 0000:09:00.3: Get port status 1-3 read: 0x202a0, return 0x10100
Nov 09 22:42:53 fedora kernel: usb 1-3: USB disconnect, device number 12
Nov 09 22:42:53 fedora kernel: usbcore:usb_disconnect:2259: usb 1-3: unregistering device
Nov 09 22:42:53 fedora kernel: usbcore:usb_disable_device:1413: usb 1-3: unregistering interface 1-3:1.0
Nov 09 22:42:53 fedora kernel: usbcore:usb_disable_device:1413: usb 1-3: unregistering interface 1-3:1.1
Nov 09 22:42:53 fedora kernel: usbcore:usb_disable_device:1413: usb 1-3: unregistering interface 1-3:1.2
Nov 09 22:42:53 fedora kernel: usbcore:usb_deregister_dev:183: usbhid 1-3:1.2: removing 96 minor
Nov 09 22:42:53 fedora kernel: usbcore:usb_disable_device:1436: usb 1-3: usb_disable_device nuking all URBs
Nov 09 22:42:53 fedora kernel: xhci_hcd:xhci_hub_control:1271: xhci_hcd 0000:09:00.3: Get port status 1-3 read: 0x2a0, return 0x100
Nov 09 22:42:53 fedora kernel: xhci_hcd:xhci_hub_control:1271: xhci_hcd 0000:09:00.3: Get port status 1-3 read: 0x2a0, return 0x100
Nov 09 22:42:53 fedora kernel: xhci_hcd:xhci_hub_control:1271: xhci_hcd 0000:09:00.3: Get port status 1-3 read: 0x2a0, return 0x100
Nov 09 22:42:53 fedora kernel: xhci_hcd:xhci_hub_control:1271: xhci_hcd 0000:09:00.3: Get port status 1-3 read: 0x2a0, return 0x100
Nov 09 22:42:53 fedora kernel: xhci_hcd:xhci_hub_control:1271: xhci_hcd 0000:09:00.3: Get port status 1-3 read: 0x2a0, return 0x100


OK device is back:

Nov 09 22:37:22 fedora kernel: xhci_hcd:xhci_disable_hub_port_wake:825: xhci_hcd 0000:09:00.3: config port 1-3 wake bits, portsc: 0x2a0, write: 0x202a0
Nov 09 22:37:22 fedora kernel: xhci_hcd:handle_port_status:1906: xhci_hcd 0000:09:00.3: Port change event, 1-3, id 3, portsc: 0x206e1
Nov 09 22:37:22 fedora kernel: xhci_hcd:xhci_hub_control:1271: xhci_hcd 0000:09:00.3: Get port status 1-3 read: 0x206e1, return 0x10101
Nov 09 22:37:22 fedora kernel: xhci_hcd:xhci_hub_control:1271: xhci_hcd 0000:09:00.3: Get port status 1-3 read: 0x6e1, return 0x101
Nov 09 22:37:22 fedora kernel: xhci_hcd:xhci_hub_control:1503: xhci_hcd 0000:09:00.3: set port reset, actual port 1-3 status  = 0x6f1
Nov 09 22:37:22 fedora kernel: xhci_hcd:handle_port_status:1906: xhci_hcd 0000:09:00.3: Port change event, 1-3, id 3, portsc: 0x200603
Nov 09 22:37:22 fedora kernel: xhci_hcd:xhci_hub_control:1271: xhci_hcd 0000:09:00.3: Get port status 1-3 read: 0x200603, return 0x100103
Nov 09 22:37:22 fedora kernel: usb 1-3: new full-speed USB device number 12 using xhci_hcd
Nov 09 22:37:22 fedora kernel: xhci_hcd:xhci_hub_control:1503: xhci_hcd 0000:09:00.3: set port reset, actual port 1-3 status  = 0x6f1
Nov 09 22:37:22 fedora kernel: xhci_hcd:handle_port_status:1906: xhci_hcd 0000:09:00.3: Port change event, 1-3, id 3, portsc: 0x200603
Nov 09 22:37:22 fedora kernel: xhci_hcd:xhci_hub_control:1271: xhci_hcd 0000:09:00.3: Get port status 1-3 read: 0x200603, return 0x100103
Nov 09 22:37:22 fedora kernel: usbcore:usb_parse_interface:553: usb 1-3: skipped 1 descriptor after interface
Nov 09 22:37:22 fedora kernel: usbcore:usb_parse_interface:553: usb 1-3: skipped 1 descriptor after interface
Nov 09 22:37:22 fedora kernel: usbcore:usb_parse_interface:553: usb 1-3: skipped 1 descriptor after interface
Nov 09 22:37:22 fedora kernel: usbcore:usb_get_langid:945: usb 1-3: default language 0x0409
Nov 09 22:37:22 fedora kernel: usbcore:usb_new_device:2572: usb 1-3: udev 12, busnum 1, minor = 11
Nov 09 22:37:22 fedora kernel: usb 1-3: New USB device found, idVendor=0b05, idProduct=1abe, bcdDevice= 0.02
Nov 09 22:37:22 fedora kernel: usb 1-3: New USB device strings: Mfr=1, Product=2, SerialNumber=0
Nov 09 22:37:22 fedora kernel: usb 1-3: Product: N-KEY Device
Nov 09 22:37:22 fedora kernel: usb 1-3: Manufacturer: ASUSTeK Computer Inc.
Nov 09 22:37:22 fedora kernel: usbcore:usb_probe_device:255: usb 1-3: usb_probe_device
Nov 09 22:37:22 fedora kernel: usbcore:usb_choose_configuration:185: usb 1-3: configuration #1 chosen from 1 choice
Nov 09 22:37:22 fedora kernel: usbcore:usb_set_configuration:2202: usb 1-3: adding 1-3:1.0 (config #1, interface 0)
Nov 09 22:37:22 fedora kernel: usbcore:usb_probe_interface:327: usbhid 1-3:1.0: usb_probe_interface
Nov 09 22:37:22 fedora kernel: usbcore:usb_probe_interface:349: usbhid 1-3:1.0: usb_probe_interface - got id
Nov 09 22:37:22 fedora kernel: input: ASUSTeK Computer Inc. N-KEY Device as /devices/pci0000:00/0000:00:08.1/0000:09:00.3/usb1/1-3/1-3:1.0/0003:0B05:1ABE.0020/input/input74
Nov 09 22:37:22 fedora kernel: usbcore:usb_set_configuration:2202: usb 1-3: adding 1-3:1.1 (config #1, interface 1)
Nov 09 22:37:22 fedora kernel: usbcore:usb_probe_interface:327: usbhid 1-3:1.1: usb_probe_interface
Nov 09 22:37:22 fedora kernel: usbcore:usb_probe_interface:349: usbhid 1-3:1.1: usb_probe_interface - got id
Nov 09 22:37:22 fedora kernel: input: ASUSTeK Computer Inc. N-KEY Device as /devices/pci0000:00/0000:00:08.1/0000:09:00.3/usb1/1-3/1-3:1.1/0003:0B05:1ABE.0021/input/input75
Nov 09 22:37:22 fedora kernel: usbcore:usb_set_configuration:2202: usb 1-3: adding 1-3:1.2 (config #1, interface 2)
Nov 09 22:37:22 fedora kernel: usbcore:usb_probe_interface:327: usbhid 1-3:1.2: usb_probe_interface
Nov 09 22:37:22 fedora kernel: usbcore:usb_probe_interface:349: usbhid 1-3:1.2: usb_probe_interface - got id
Nov 09 22:37:22 fedora kernel: input: ASUSTeK Computer Inc. N-KEY Device as /devices/pci0000:00/0000:00:08.1/0000:09:00.3/usb1/1-3/1-3:1.2/0003:0B05:1ABE.0022/input/input76
Nov 09 22:37:22 fedora kernel: usbcore:usb_register_dev:132: usbhid 1-3:1.2: looking for a minor, starting at 96
Nov 09 22:37:22 fedora mtp-probe[10694]: checking bus 1, device 12: "/sys/devices/pci0000:00/0000:00:08.1/0000:09:00.3/usb1/1-3"
Nov 09 22:37:22 fedora mtp-probe[10731]: checking bus 1, device 12: "/sys/devices/pci0000:00/0000:00:08.1/0000:09:00.3/usb1/1-3"


This is good:
Nov 09 22:37:22 fedora kernel: xhci_hcd:handle_port_status:1906: xhci_hcd 0000:09:00.3: Port change event, 1-3, id 3, portsc: 0x200603
Nov 09 22:37:22 fedora kernel: xhci_hcd:xhci_hub_control:1271: xhci_hcd 0000:09:00.3: Get port status 1-3 read: 0x200603, return 0x100103

This is bad:
Nov 09 22:42:53 fedora kernel: usbcore:wait_for_connected:3657: usb 1-3: Waited 0ms for CONNECT
Nov 09 22:42:53 fedora kernel: usbcore:finish_port_resume:3539: usb 1-3: finish reset-resume
Nov 09 22:42:53 fedora kernel: xhci_hcd:handle_port_status:1906: xhci_hcd 0000:09:00.3: Port change event, 1-3, id 3, portsc: 0x200603
Nov 09 22:42:53 fedora kernel: xhci_hcd:xhci_hub_control:1271: xhci_hcd 0000:09:00.3: Get port status 1-3 read: 0x2202a0, return 0x110100
