[ 3404.005225] acpi:acpi_device_set_power:171: ACPI: \_SB_.PCI0.GPP0: PM: Power state change: D3cold -> D0
[ 3404.005229] acpi:acpi_device_set_power:171: ACPI: \_SB_.PCI0.GP17: PM: Power state change: D3cold -> D0
[ 3404.005231] acpi:acpi_device_set_power:171: ACPI: \_SB_.PCI0.GPP7: PM: Power state change: D3cold -> D0
[ 3404.005348] acpi:__acpi_power_on:376: ACPI: \_SB_.PCI0.GPP0.M237: ACPI: PM: Power resource turned on
[ 3404.005351] acpi:acpi_device_set_power:283: ACPI: \_SB_.PCI0.GPP0: PM: Power state changed to D0
[ 3404.005353] acpi:__acpi_power_on:376: ACPI: \_SB_.PCI0.GPP7.RPR2: ACPI: PM: Power resource turned on
[ 3404.005355] acpi:__acpi_power_on:376: ACPI: \_SB_.PCI0.GP17.PWRS: ACPI: PM: Power resource turned on
[ 3404.005358] acpi:acpi_device_set_power:283: ACPI: \_SB_.PCI0.GPP7: PM: Power state changed to D0
[ 3404.005391] acpi:acpi_device_set_power:283: ACPI: \_SB_.PCI0.GP17: PM: Power state changed to D0
[ 3404.017987] acpi:acpi_device_set_power:171: ACPI: \_SB_.PCI0.GP19.XHC2: PM: Power state change: D0 -> D0
[ 3404.018012] acpi:acpi_device_set_power:171: ACPI: \_SB_.PCI0.GP19.XHC4: PM: Power state change: D3cold -> D0
[ 3404.018034] acpi:acpi_device_set_power:290: ACPI: \_SB_.PCI0.GP19.XHC2: PM: Already in D0
[ 3404.018057] acpi:acpi_device_set_power:171: ACPI: \_SB_.PCI0.GP19.XHC3: PM: Power state change: D3cold -> D0
[ 3404.021107] acpi:acpi_device_set_power:171: ACPI: \_SB_.PCI0.GPP8.NVME: PM: Power state change: D3cold -> D0
[ 3404.021535] acpi:__acpi_power_on:376: ACPI: \_SB_.PCI0.GP19.XHC4.PWRS: ACPI: PM: Power resource turned on
[ 3404.021968] acpi:__acpi_power_on:376: ACPI: \_SB_.PCI0.GP19.XHC3.PWRS: ACPI: PM: Power resource turned on
[ 3404.022292] acpi:acpi_device_set_power:283: ACPI: \_SB_.PCI0.GP19.XHC4: PM: Power state changed to D0
[ 3404.022449] acpi:__acpi_power_on:376: ACPI: \_SB_.PCI0.GPP8.P0NV: ACPI: PM: Power resource turned on
[ 3404.022640] acpi:acpi_device_set_power:283: ACPI: \_SB_.PCI0.GP19.XHC3: PM: Power state changed to D0
[ 3404.023013] acpi:acpi_device_set_power:283: ACPI: \_SB_.PCI0.GPP8.NVME: PM: Power state changed to D0
[ 3404.145043] acpi:acpi_device_set_power:171: ACPI: \_SB_.PCI0.GP17.AZAL: PM: Power state change: D3cold -> D0
[ 3404.145108] acpi:acpi_device_set_power:171: ACPI: \_SB_.PCI0.GP17.VGA_: PM: Power state change: D3cold -> D0
[ 3404.145144] acpi:acpi_device_set_power:171: ACPI: \_SB_.PCI0.GP17.XHC0: PM: Power state change: D3cold -> D0
[ 3404.145179] acpi:acpi_device_set_power:171: ACPI: \_SB_.PCI0.GP17.XHC1: PM: Power state change: D3cold -> D0
[ 3404.145185] acpi:acpi_device_set_power:171: ACPI: \_SB_.PCI0.GP17.ACP_: PM: Power state change: D3cold -> D0
[ 3404.145225] acpi:acpi_device_set_power:171: ACPI: \_SB_.PCI0.GPP7.CADR: PM: Power state change: D3hot -> D0
[ 3404.149054] acpi:__acpi_power_on:376: ACPI: \_SB_.PCI0.GP17.AZAL.PWRS: ACPI: PM: Power resource turned on
[ 3404.149063] acpi:acpi_device_set_power:283: ACPI: \_SB_.PCI0.GPP7.CADR: PM: Power state changed to D0
[ 3404.149458] acpi:__acpi_power_on:376: ACPI: \_SB_.PCI0.GP17.VGA_.PWRS: ACPI: PM: Power resource turned on
[ 3404.158086] acpi:__acpi_power_on:376: ACPI: \_SB_.PCI0.GP17.ACP_.PWRS: ACPI: PM: Power resource turned on
[ 3404.166080] acpi:acpi_device_set_power:283: ACPI: \_SB_.PCI0.GP17.VGA_: PM: Power state changed to D0
[ 3404.166571] acpi:__acpi_power_on:376: ACPI: \_SB_.PCI0.GP17.XHC0.PWRS: ACPI: PM: Power resource turned on
[ 3404.167307] acpi:__acpi_power_on:376: ACPI: \_SB_.PCI0.GP17.XHC1.PWRS: ACPI: PM: Power resource turned on
[ 3404.167716] acpi:acpi_device_set_power:283: ACPI: \_SB_.PCI0.GP17.XHC0: PM: Power state changed to D0
[ 3404.167969] acpi:acpi_device_set_power:283: ACPI: \_SB_.PCI0.GP17.XHC1: PM: Power state changed to D0
[ 3404.168815] acpi:acpi_device_set_power:283: ACPI: \_SB_.PCI0.GP17.AZAL: PM: Power state changed to D0
[ 3404.169044] acpi:acpi_device_set_power:283: ACPI: \_SB_.PCI0.GP17.ACP_: PM: Power state changed to D0
[ 3404.179741] acpi:acpi_device_set_power:171: ACPI: \_SB_.PCI0.GP17.HDAU: PM: Power state change: D3cold -> D0
[ 3404.179903] acpi:__acpi_power_on:376: ACPI: \_SB_.PCI0.GP17.HDAU.PWRS: ACPI: PM: Power resource turned on
[ 3404.180012] acpi:acpi_device_set_power:283: ACPI: \_SB_.PCI0.GP17.HDAU: PM: Power state changed to D0
[ 3404.192395] acpi:acpi_device_set_power:171: ACPI: \_SB_.I2CA: PM: Power state change: D3hot -> D0
[ 3404.192404] acpi:acpi_device_set_power:171: ACPI: \_SB_.I2CB: PM: Power state change: D3hot -> D0
[ 3404.192415] acpi:acpi_device_set_power:171: ACPI: \_SB_.I2CD: PM: Power state change: D3hot -> D0
[ 3404.192505] acpi:acpi_subsys_resume_early:1238: ac ACPI0003:00: postponing D0 transition to normal resume stage
[ 3404.193484] acpi:acpi_device_set_power:283: ACPI: \_SB_.I2CA: PM: Power state changed to D0
[ 3404.193546] acpi:acpi_subsys_resume_early:1238: i2c_hid_acpi i2c-NVTK0603:00: postponing D0 transition to normal resume stage
[ 3404.194184] acpi:acpi_device_set_power:283: ACPI: \_SB_.I2CB: PM: Power state changed to D0
[ 3404.194904] acpi:acpi_device_set_power:283: ACPI: \_SB_.I2CD: PM: Power state changed to D0
[ 3404.194980] acpi:acpi_subsys_resume_early:1238: amd_pmc AMDI0009:00: postponing D0 transition to normal resume stage
[ 3404.195268] acpi:acpi_disable_wakeup_device_power:767: acpi device:06: Disabling wakeup power (count 1)
[ 3404.195285] acpi:acpi_disable_wakeup_device_power:798: acpi device:06: Wakeup power disabled
[ 3404.195289] acpi:acpi_pm_set_device_wakeup:952: pcieport 0000:00:01.1: Wakeup disabled by ACPI
[ 3404.195312] acpi:advance_transaction:663: ACPI: EC: TASK (11)
[ 3404.195319] acpi:acpi_ec_read_status:278: ACPI: EC: EC_SC(R) = 0x08 SCI_EVT=0 BURST=0 CMD=1 IBF=0 OBF=0
[ 3404.195348] acpi:acpi_disable_wakeup_device_power:767: acpi device:33: Disabling wakeup power (count 1)
[ 3404.198297] acpi:acpi_subsys_resume:1260: i2c_hid_acpi i2c-NVTK0603:00: executing postponed D0 transition
[ 3404.198456] acpi:acpi_subsys_resume:1260: ac ACPI0003:00: executing postponed D0 transition
[ 3404.198469] acpi:acpi_disable_wakeup_device_power:798: acpi device:33: Wakeup power disabled
[ 3404.198478] acpi:acpi_pm_set_device_wakeup:952: xhci_hcd 0000:09:00.3: Wakeup disabled by ACPI
[ 3404.198627] acpi:acpi_disable_wakeup_device_power:767: acpi device:3c: Disabling wakeup power (count 1)
[ 3404.198674] acpi:acpi_disable_wakeup_device_power:798: acpi device:3c: Wakeup power disabled
[ 3404.198676] acpi:acpi_pm_set_device_wakeup:952: xhci_hcd 0000:09:00.4: Wakeup disabled by ACPI
[ 3404.198789] acpi:acpi_disable_wakeup_device_power:767: acpi device:47: Disabling wakeup power (count 1)
[ 3404.198844] acpi:acpi_disable_wakeup_device_power:798: acpi device:47: Wakeup power disabled
[ 3404.198846] acpi:acpi_pm_set_device_wakeup:952: xhci_hcd 0000:0b:00.3: Wakeup disabled by ACPI
[ 3404.198945] xhci_hcd:xhci_dbg_trace:31: xhci_hcd 0000:09:00.3: // Setting command ring address to 0xffffe001
[ 3404.198954] xhci_hcd:xhci_dbg_trace:31: xhci_hcd 0000:09:00.4: // Setting command ring address to 0xffffe001
[ 3404.198957] acpi:acpi_disable_wakeup_device_power:767: acpi device:4b: Disabling wakeup power (count 1)
[ 3404.199123] xhci_hcd:xhci_resume:1177: xhci_hcd 0000:09:00.4: xhci_resume: starting usb3 port polling.
[ 3404.199130] xhci_hcd:xhci_resume:1177: xhci_hcd 0000:09:00.3: xhci_resume: starting usb1 port polling.
[ 3404.199131] xhci_hcd:xhci_dbg_trace:31: xhci_hcd 0000:0b:00.3: // Setting command ring address to 0xffffe001
[ 3404.199135] xhci_hcd:handle_port_status:1906: xhci_hcd 0000:09:00.3: Port change event, 1-3, id 3, portsc: 0x206e1
[ 3404.199156] xhci_hcd:handle_port_status:1912: xhci_hcd 0000:09:00.3: resume root hub
[ 3404.199283] xhci_hcd:xhci_hub_status_data:1705: xhci_hcd 0000:09:00.4: xhci_hub_status_data: stopping usb4 port polling
[ 3404.199284] xhci_hcd:handle_port_status:2025: xhci_hcd 0000:09:00.3: handle_port_status: starting usb1 port polling.
[ 3404.199297] xhci_hcd:xhci_hub_status_data:1705: xhci_hcd 0000:09:00.4: xhci_hub_status_data: stopping usb3 port polling
[ 3404.199304] xhci_hcd:xhci_hub_status_data:1705: xhci_hcd 0000:09:00.3: xhci_hub_status_data: stopping usb2 port polling
[ 3404.199347] usbcore:hcd_bus_resume:2303: usb usb3: usb resume
[ 3404.199350] usbcore:hcd_bus_resume:2303: usb usb4: usb resume
[ 3404.199432] xhci_hcd:xhci_resume:1177: xhci_hcd 0000:0b:00.3: xhci_resume: starting usb5 port polling.
[ 3404.199435] xhci_hcd:handle_port_status:1906: xhci_hcd 0000:09:00.3: Port change event, 1-2, id 2, portsc: 0x206e1
[ 3404.199445] usbcore:hub_resume:3952: hub 3-0:1.0: hub_resume
[ 3404.199449] xhci_hcd:xhci_hub_status_data:1705: xhci_hcd 0000:0b:00.3: xhci_hub_status_data: stopping usb6 port polling
[ 3404.199451] xhci_hcd:handle_port_status:1912: xhci_hcd 0000:09:00.3: resume root hub
[ 3404.199452] usbcore:hub_resume:3952: hub 4-0:1.0: hub_resume
[ 3404.199464] xhci_hcd:xhci_hub_status_data:1705: xhci_hcd 0000:0b:00.3: xhci_hub_status_data: stopping usb5 port polling
[ 3404.199464] xhci_hcd:handle_port_status:2025: xhci_hcd 0000:09:00.3: handle_port_status: starting usb1 port polling.
[ 3404.199468] xhci_hcd:xhci_hub_control:1271: xhci_hcd 0000:09:00.4: Get port status 3-1 read: 0x2a0, return 0x100
[ 3404.199482] usbcore:hcd_bus_resume:2303: usb usb1: usb resume
[ 3404.199509] usbcore:hcd_bus_resume:2303: usb usb5: usb resume
[ 3404.199537] usbcore:hub_resume:3952: hub 5-0:1.0: hub_resume
[ 3404.199542] usbcore:hcd_bus_resume:2303: usb usb2: usb resume
[ 3404.199541] usbcore:hcd_bus_resume:2303: usb usb6: usb resume
[ 3404.199562] xhci_hcd:xhci_hub_control:1271: xhci_hcd 0000:0b:00.3: Get port status 5-1 read: 0xe63, return 0x507
[ 3404.199618] usbcore:hub_activate:1169: usb usb5-port1: status 0507 change 0000
[ 3404.199633] usbcore:hub_resume:3952: hub 2-0:1.0: hub_resume
[ 3404.199645] usbcore:hub_resume:3952: hub 6-0:1.0: hub_resume
[ 3404.199699] xhci_hcd:xhci_hub_control:1271: xhci_hcd 0000:0b:00.3: Get port status 5-1 read: 0xe63, return 0x507
[ 3404.199799] xhci_hcd:xhci_hub_control:1567: xhci_hcd 0000:0b:00.3: clear USB_PORT_FEAT_SUSPEND
[ 3404.199801] acpi:acpi_disable_wakeup_device_power:798: acpi device:4b: Wakeup power disabled
[ 3404.199814] xhci_hcd:xhci_hub_control:1568: xhci_hcd 0000:0b:00.3: PORTSC 0e63
[ 3404.199817] acpi:acpi_pm_set_device_wakeup:952: xhci_hcd 0000:0b:00.4: Wakeup disabled by ACPI
[ 3404.199830] xhci_hcd:xhci_set_link_state:799: xhci_hcd 0000:0b:00.3: Set port 5-1 link state, portsc: 0xe63, write 0x10fe1
[ 3404.199853] xhci_hcd:xhci_dbg_trace:31: xhci_hcd 0000:0b:00.4: // Setting command ring address to 0xffffe001
[ 3404.199934] xhci_hcd:xhci_resume:1177: xhci_hcd 0000:0b:00.4: xhci_resume: starting usb7 port polling.
[ 3404.199946] xhci_hcd:xhci_hub_status_data:1705: xhci_hcd 0000:0b:00.4: xhci_hub_status_data: stopping usb8 port polling
[ 3404.199957] xhci_hcd:xhci_hub_status_data:1705: xhci_hcd 0000:0b:00.4: xhci_hub_status_data: stopping usb7 port polling
[ 3404.199993] usbcore:hcd_bus_resume:2303: usb usb7: usb resume
[ 3404.199998] usbcore:hcd_bus_resume:2303: usb usb8: usb resume
[ 3404.200018] usbcore:hub_resume:3952: hub 7-0:1.0: hub_resume
[ 3404.200032] usbcore:hub_resume:3952: hub 8-0:1.0: hub_resume
[ 3404.200036] xhci_hcd:xhci_hub_control:1271: xhci_hcd 0000:0b:00.4: Get port status 7-1 read: 0x2a0, return 0x100
[ 3404.200497] acpi:acpi_subsys_resume:1260: amd_pmc AMDI0009:00: executing postponed D0 transition
[ 3404.201014] [drm] PCIE GART of 512M enabled (table at 0x00000080FFD00000).
[ 3404.201044] amdgpu 0000:09:00.0: amdgpu: SMU is resuming...
[ 3404.203234] amdgpu 0000:09:00.0: amdgpu: SMU is resumed successfully!
[ 3404.220606] xhci_hcd:xhci_hub_control:1271: xhci_hcd 0000:09:00.4: Get port status 4-1 read: 0x2a0, return 0x2a0
[ 3404.221614] xhci_hcd:xhci_hub_control:1271: xhci_hcd 0000:0b:00.4: Get port status 8-1 read: 0x2a0, return 0x2a0
[ 3404.221651] xhci_hcd:xhci_hub_control:1271: xhci_hcd 0000:09:00.3: Get port status 2-1 read: 0x2a0, return 0x2a0
[ 3404.221651] xhci_hcd:xhci_hub_control:1271: xhci_hcd 0000:0b:00.3: Get port status 6-1 read: 0x2a0, return 0x2a0
[ 3404.221735] xhci_hcd:xhci_hub_control:1271: xhci_hcd 0000:09:00.3: Get port status 2-2 read: 0x2a0, return 0x2a0
[ 3404.238122] cs35l41-hda i2c-CSC3551:00-cs35l41-hda.1: DSP1: Firmware version: 3
[ 3404.238124] cs35l41-hda i2c-CSC3551:00-cs35l41-hda.1: DSP1: cirrus/cs35l41-dsp1-spk-prot-104317f3.wmfw: Fri 27 Aug 2021 14:58:19 W. Europe Daylight Time
[ 3404.240668] xhci_hcd:xhci_set_link_state:799: xhci_hcd 0000:09:00.3: Set port 1-4 link state, portsc: 0xfe3, write 0x10e01
[ 3404.240679] xhci_hcd:xhci_set_link_state:799: xhci_hcd 0000:09:00.3: Set port 1-5 link state, portsc: 0xfe3, write 0x10e01
[ 3404.240706] xhci_hcd:handle_port_status:1906: xhci_hcd 0000:09:00.3: Port change event, 1-4, id 4, portsc: 0xe03
[ 3404.240711] xhci_hcd:handle_port_status:2025: xhci_hcd 0000:09:00.3: handle_port_status: starting usb1 port polling.
[ 3404.240718] xhci_hcd:handle_port_status:1906: xhci_hcd 0000:09:00.3: Port change event, 1-5, id 5, portsc: 0xe03
[ 3404.240721] xhci_hcd:handle_port_status:2025: xhci_hcd 0000:09:00.3: handle_port_status: starting usb1 port polling.
[ 3404.241113] xhci_hcd:handle_tx_event:2701: xhci_hcd 0000:09:00.3: overrun event on endpoint
[ 3404.241115] xhci_hcd:handle_tx_event:2693: xhci_hcd 0000:09:00.3: underrun event on endpoint
[ 3404.241649] xhci_hcd:xhci_set_link_state:799: xhci_hcd 0000:0b:00.3: Set port 5-1 link state, portsc: 0xfe3, write 0x10e01
[ 3404.241670] xhci_hcd:handle_port_status:1906: xhci_hcd 0000:0b:00.3: Port change event, 5-1, id 1, portsc: 0x400e03
[ 3404.241671] usbcore:usb_port_resume:3732: usb 5-1: usb resume
[ 3404.241676] xhci_hcd:handle_port_status:2025: xhci_hcd 0000:0b:00.3: handle_port_status: starting usb5 port polling.
[ 3404.251737] usbcore:hub_resume:3952: hub 1-0:1.0: hub_resume
[ 3404.251744] xhci_hcd:xhci_hub_control:1271: xhci_hcd 0000:09:00.3: Get port status 1-1 read: 0x2a0, return 0x100
[ 3404.251797] xhci_hcd:xhci_hub_control:1271: xhci_hcd 0000:09:00.3: Get port status 1-2 read: 0x206e1, return 0x10101
[ 3404.251845] usbcore:hub_activate:1169: usb usb1-port2: status 0101 change 0001
[ 3404.251856] xhci_hcd:xhci_clear_port_change_bit:658: xhci_hcd 0000:09:00.3: clear port2 connect change, portsc: 0x6e1
[ 3404.251904] xhci_hcd:xhci_hub_control:1271: xhci_hcd 0000:09:00.3: Get port status 1-3 read: 0x206e1, return 0x10101
[ 3404.251951] usbcore:hub_activate:1169: usb usb1-port3: status 0101 change 0001
[ 3404.251961] xhci_hcd:xhci_clear_port_change_bit:658: xhci_hcd 0000:09:00.3: clear port3 connect change, portsc: 0x6e1
[ 3404.252010] xhci_hcd:xhci_hub_control:1271: xhci_hcd 0000:09:00.3: Get port status 1-4 read: 0xe03, return 0x503
[ 3404.252057] usbcore:hub_activate:1169: usb usb1-port4: status 0503 change 0000
[ 3404.252065] xhci_hcd:xhci_hub_control:1271: xhci_hcd 0000:09:00.3: Get port status 1-5 read: 0xe03, return 0x503
[ 3404.252111] usbcore:hub_activate:1169: usb usb1-port5: status 0503 change 0000
[ 3404.255272] nvme nvme0: 16/0/0 default/read/poll queues
[ 3404.283631] xhci_hcd:xhci_hub_control:1271: xhci_hcd 0000:0b:00.3: Get port status 5-1 read: 0xe03, return 0x40503
[ 3404.283684] xhci_hcd:xhci_clear_port_change_bit:658: xhci_hcd 0000:0b:00.3: clear port1 suspend/resume change, portsc: 0xe03
[ 3404.295644] usbcore:wait_for_connected:3657: usb 5-1: Waited 0ms for CONNECT
[ 3404.295651] usbcore:finish_port_resume:3539: usb 5-1: finish resume
[ 3404.296003] usbcore:hub_resume:3952: hub 5-1:1.0: hub_resume
[ 3404.297104] usbcore:hub_activate:1169: usb 5-1-port3: status 0103 change 0000
[ 3404.297477] usbcore:hub_activate:1169: usb 5-1-port4: status 0507 change 0000
[ 3404.297854] usbcore:hub_activate:1169: usb 5-1-port5: status 0303 change 0000
[ 3404.299228] usbcore:usb_port_resume:3732: usb 5-1.4: usb resume
[ 3404.309647] usbcore:wait_for_connected:3657: usb 5-1.3: Waited 0ms for CONNECT
[ 3404.309649] usbcore:wait_for_connected:3657: usb 5-1.5: Waited 0ms for CONNECT
[ 3404.309656] usbcore:finish_port_resume:3539: usb 5-1.3: finish resume
[ 3404.309658] usbcore:finish_port_resume:3539: usb 5-1.5: finish resume
[ 3404.353151] usbcore:wait_for_connected:3657: usb 5-1.4: Waited 0ms for CONNECT
[ 3404.353164] usbcore:finish_port_resume:3539: usb 5-1.4: finish resume
[ 3404.353648] usbcore:hub_resume:3952: hub 5-1.4:1.0: hub_resume
[ 3404.355419] usbcore:hub_activate:1169: usb 5-1.4-port2: status 0507 change 0000
[ 3404.357182] usbcore:usb_port_resume:3732: usb 5-1.4.2: usb resume
[ 3404.358659] xhci_hcd:xhci_hub_status_data:1705: xhci_hcd 0000:09:00.3: xhci_hub_status_data: stopping usb1 port polling
[ 3404.358660] xhci_hcd:xhci_hub_status_data:1705: xhci_hcd 0000:0b:00.3: xhci_hub_status_data: stopping usb5 port polling
[ 3404.358702] xhci_hcd:xhci_hub_control:1271: xhci_hcd 0000:09:00.3: Get port status 1-2 read: 0x6e1, return 0x101
[ 3404.358814] xhci_hcd:xhci_hub_control:1271: xhci_hcd 0000:09:00.3: Get port status 1-4 read: 0xe03, return 0x503
[ 3404.358922] xhci_hcd:xhci_hub_control:1271: xhci_hcd 0000:09:00.3: Get port status 1-3 read: 0x6e1, return 0x101
[ 3404.358998] xhci_hcd:xhci_hub_control:1271: xhci_hcd 0000:09:00.3: Get port status 1-5 read: 0xe03, return 0x503
[ 3404.360202] xhci_hcd:xhci_hub_status_data:1705: xhci_hcd 0000:09:00.3: xhci_hub_status_data: stopping usb1 port polling
[ 3404.370633] usbcore:wait_for_connected:3657: usb 1-2: Waited 0ms for CONNECT
[ 3404.370642] usbcore:finish_port_resume:3539: usb 1-2: finish reset-resume
[ 3404.370643] usbcore:wait_for_connected:3657: usb 1-5: Waited 0ms for CONNECT
[ 3404.370647] usbcore:finish_port_resume:3539: usb 1-5: finish resume
[ 3404.370647] usbcore:wait_for_connected:3657: usb 1-3: Waited 0ms for CONNECT
[ 3404.370653] usbcore:finish_port_resume:3539: usb 1-3: finish reset-resume
[ 3404.370663] xhci_hcd:xhci_hub_control:1503: xhci_hcd 0000:09:00.3: set port reset, actual port 1-2 status  = 0x6f1
[ 3404.370664] usbcore:wait_for_connected:3657: usb 1-4: Waited 0ms for CONNECT
[ 3404.370669] usbcore:finish_port_resume:3539: usb 1-4: finish resume
[ 3404.410680] usbcore:wait_for_connected:3657: usb 5-1.4.2: Waited 0ms for CONNECT
[ 3404.410693] usbcore:finish_port_resume:3539: usb 5-1.4.2: finish resume
[ 3404.411255] usbcore:hub_resume:3952: hub 5-1.4.2:1.0: hub_resume
[ 3404.412154] usbcore:hub_activate:1169: usb 5-1.4.2-port1: status 0107 change 0000
[ 3404.415858] usbcore:hub_activate:1169: usb 5-1.4.2-port4: status 0107 change 0000
[ 3404.417073] usbcore:usb_port_resume:3732: usb 5-1.4.2.1: usb resume
[ 3404.418406] usbcore:usb_port_resume:3732: usb 5-1.4.2.4: usb resume
[ 3404.421030] xhci_hcd:handle_port_status:1906: xhci_hcd 0000:09:00.3: Port change event, 1-2, id 2, portsc: 0x200603
[ 3404.421041] xhci_hcd:handle_port_status:2025: xhci_hcd 0000:09:00.3: handle_port_status: starting usb1 port polling.
[ 3404.433125] xhci_hcd:xhci_hub_control:1271: xhci_hcd 0000:09:00.3: Get port status 1-2 read: 0x200603, return 0x100103
[ 3404.433143] xhci_hcd:xhci_clear_port_change_bit:658: xhci_hcd 0000:09:00.3: clear port2 reset change, portsc: 0x603
[ 3404.471698] usbcore:wait_for_connected:3657: usb 5-1.4.2.1: Waited 0ms for CONNECT
[ 3404.471712] usbcore:finish_port_resume:3539: usb 5-1.4.2.1: finish resume
[ 3404.472958] usbcore:wait_for_connected:3657: usb 5-1.4.2.4: Waited 0ms for CONNECT
[ 3404.472971] usbcore:finish_port_resume:3539: usb 5-1.4.2.4: finish resume
[ 3404.477851] xhci_hcd:process_bulk_intr_td:2490: xhci_hcd 0000:0b:00.3: ep 0x83 - asked for 32 bytes, 12 bytes untransferred
[ 3404.479811] xhci_hcd:process_bulk_intr_td:2490: xhci_hcd 0000:0b:00.3: ep 0x83 - asked for 32 bytes, 17 bytes untransferred
[ 3404.482175] xhci_hcd:process_bulk_intr_td:2490: xhci_hcd 0000:0b:00.3: ep 0x83 - asked for 32 bytes, 17 bytes untransferred
[ 3404.484658] xhci_hcd:xhci_discover_or_reset_device:3729: xhci_hcd 0000:09:00.3: Resetting device with slot ID 1
[ 3404.484671] xhci_hcd:xhci_ring_cmd_db:360: xhci_hcd 0000:09:00.3: // Ding dong!
[ 3404.487177] xhci_hcd:xhci_handle_cmd_reset_dev:1550: xhci_hcd 0000:09:00.3: Completed reset device command.
[ 3404.487385] xhci_hcd:xhci_discover_or_reset_device:3778: xhci_hcd 0000:09:00.3: Successful reset device command.
[ 3404.487471] usb 1-2: reset full-speed USB device number 2 using xhci_hcd
[ 3404.487480] xhci_hcd:xhci_setup_device:4082: xhci_hcd 0000:09:00.3: Slot already in default state
[ 3404.489210] xhci_hcd:process_ctrl_td:2338: xhci_hcd 0000:09:00.3: Waiting for status stage event
[ 3404.491037] xhci_hcd:xhci_hub_control:1503: xhci_hcd 0000:09:00.3: set port reset, actual port 1-2 status  = 0x6f1
[ 3404.506154] xhci_hcd:process_bulk_intr_td:2490: xhci_hcd 0000:0b:00.3: ep 0x83 - asked for 32 bytes, 12 bytes untransferred
[ 3404.506260] logitech-hidpp-device 0003:046D:406F.000D: HID++ 4.5 device connected.
[ 3404.530166] xhci_hcd:process_bulk_intr_td:2490: xhci_hcd 0000:0b:00.3: ep 0x83 - asked for 32 bytes, 12 bytes untransferred
[ 3404.541393] xhci_hcd:handle_port_status:1906: xhci_hcd 0000:09:00.3: Port change event, 1-2, id 2, portsc: 0x200603
[ 3404.541410] xhci_hcd:handle_port_status:2025: xhci_hcd 0000:09:00.3: handle_port_status: starting usb1 port polling.
[ 3404.553186] xhci_hcd:xhci_hub_control:1271: xhci_hcd 0000:09:00.3: Get port status 1-2 read: 0x200603, return 0x100103
[ 3404.553239] xhci_hcd:xhci_clear_port_change_bit:658: xhci_hcd 0000:09:00.3: clear port2 reset change, portsc: 0x603
[ 3404.556553] xhci_hcd:process_bulk_intr_td:2490: xhci_hcd 0000:0b:00.3: ep 0x83 - asked for 32 bytes, 12 bytes untransferred
[ 3404.579869] xhci_hcd:process_bulk_intr_td:2490: xhci_hcd 0000:0b:00.3: ep 0x83 - asked for 32 bytes, 12 bytes untransferred
[ 3404.604538] xhci_hcd:process_bulk_intr_td:2490: xhci_hcd 0000:0b:00.3: ep 0x83 - asked for 32 bytes, 12 bytes untransferred
[ 3404.604662] xhci_hcd:xhci_discover_or_reset_device:3729: xhci_hcd 0000:09:00.3: Resetting device with slot ID 1
[ 3404.604670] xhci_hcd:xhci_ring_cmd_db:360: xhci_hcd 0000:09:00.3: // Ding dong!
[ 3404.604719] xhci_hcd:xhci_handle_cmd_reset_dev:1550: xhci_hcd 0000:09:00.3: Completed reset device command.
[ 3404.604732] xhci_hcd:xhci_discover_or_reset_device:3770: xhci_hcd 0000:09:00.3: Can't reset device (slot ID 1) in default state
[ 3404.604734] xhci_hcd:xhci_discover_or_reset_device:3773: xhci_hcd 0000:09:00.3: Not freeing device rings.
[ 3404.604750] xhci_hcd:xhci_ring_cmd_db:360: xhci_hcd 0000:09:00.3: // Ding dong!
[ 3404.606330] xhci_hcd:xhci_dbg_trace:31: xhci_hcd 0000:09:00.3: Successful setup address command
[ 3404.606351] xhci_hcd:xhci_dbg_trace:31: xhci_hcd 0000:09:00.3: Op regs DCBAA ptr = 0x000000fffff000
[ 3404.606358] xhci_hcd:xhci_dbg_trace:31: xhci_hcd 0000:09:00.3: Slot ID 1 dcbaa entry @0000000023033959 = 0x000000ffff7000
[ 3404.606365] xhci_hcd:xhci_dbg_trace:31: xhci_hcd 0000:09:00.3: Output Context DMA address = 0xffff7000
[ 3404.606370] xhci_hcd:xhci_dbg_trace:31: xhci_hcd 0000:09:00.3: Internal device address = 1
[ 3404.614668] xhci_hcd:xhci_hub_status_data:1705: xhci_hcd 0000:09:00.3: xhci_hub_status_data: stopping usb1 port polling
[ 3404.620658] xhci_hcd:xhci_hub_control:1503: xhci_hcd 0000:09:00.3: set port reset, actual port 1-3 status  = 0x6f1
[ 3404.625618] xhci_hcd:process_ctrl_td:2338: xhci_hcd 0000:09:00.3: Waiting for status stage event
[ 3404.626966] xhci_hcd:xhci_drop_endpoint:1811: xhci_hcd 0000:09:00.3: xhci_drop_endpoint called for udev 00000000412b8482
[ 3404.626979] xhci_hcd:xhci_drop_endpoint:1811: xhci_hcd 0000:09:00.3: xhci_drop_endpoint called for udev 00000000412b8482
[ 3404.626992] xhci_hcd:xhci_add_endpoint:1967: xhci_hcd 0000:09:00.3: add ep 0x81, slot id 1, new drop flags = 0x0, new add flags = 0x8
[ 3404.627001] xhci_hcd:xhci_add_endpoint:1967: xhci_hcd 0000:09:00.3: add ep 0x2, slot id 1, new drop flags = 0x0, new add flags = 0x18
[ 3404.627007] xhci_hcd:xhci_check_bandwidth:2922: xhci_hcd 0000:09:00.3: xhci_check_bandwidth called for udev 00000000412b8482
[ 3404.627017] xhci_hcd:xhci_ring_cmd_db:360: xhci_hcd 0000:09:00.3: // Ding dong!
[ 3404.627851] xhci_hcd:process_bulk_intr_td:2490: xhci_hcd 0000:0b:00.3: ep 0x83 - asked for 32 bytes, 12 bytes untransferred
[ 3404.631341] xhci_hcd:xhci_dbg_trace:31: xhci_hcd 0000:09:00.3: Successful Endpoint Configure command
[ 3404.635553] usbcore:usb_resume_interface:1355: xpad 1-2:1.0: no reset_resume for driver xpad?
[ 3404.635560] usbcore:usb_forced_unbind_intf:1117: xpad 1-2:1.0: forced unbind
---> [ 3404.670975] xhci_hcd:handle_port_status:1906: xhci_hcd 0000:09:00.3: Port change event, 1-3, id 3, portsc: 0x2202a0
[ 3404.670988] xhci_hcd:handle_port_status:2025: xhci_hcd 0000:09:00.3: handle_port_status: starting usb1 port polling.
[ 3404.682674] xhci_hcd:xhci_hub_control:1271: xhci_hcd 0000:09:00.3: Get port status 1-3 read: 0x2202a0, return 0x110100
[ 3404.682697] usbcore:hub_port_wait_reset:2896: usb usb1-port3: not reset yet, waiting 60ms
[ 3404.718396] cs35l41-hda i2c-CSC3551:00-cs35l41-hda.1: DSP1: Firmware: 400a4 vendor: 0x2 v0.43.1, 2 algorithms
[ 3404.719040] cs35l41-hda i2c-CSC3551:00-cs35l41-hda.0: DSP1: Firmware version: 3
[ 3404.719049] cs35l41-hda i2c-CSC3551:00-cs35l41-hda.0: DSP1: cirrus/cs35l41-dsp1-spk-prot-104317f3.wmfw: Fri 27 Aug 2021 14:58:19 W. Europe Daylight Time
[ 3404.719966] cs35l41-hda i2c-CSC3551:00-cs35l41-hda.1: DSP1: cirrus/cs35l41-dsp1-spk-prot-104317f3-spkid1-r0.bin: v0.43.1
[ 3404.719975] cs35l41-hda i2c-CSC3551:00-cs35l41-hda.1: DSP1: spk-prot: C:\Users\dchunyi\Documents\Asus_ROG\Project\NR2301\Tuning\20221125\104317F3_221125_V1_A1.bin
[ 3404.745117] xhci_hcd:xhci_hub_control:1271: xhci_hcd 0000:09:00.3: Get port status 1-3 read: 0x2202a0, return 0x110100
[ 3404.745141] usbcore:hub_port_wait_reset:2896: usb usb1-port3: not reset yet, waiting 200ms
[ 3404.951011] xhci_hcd:xhci_hub_control:1271: xhci_hcd 0000:09:00.3: Get port status 1-3 read: 0x2202a0, return 0x110100
[ 3404.951051] usbcore:hub_port_wait_reset:2896: usb usb1-port3: not reset yet, waiting 200ms
[ 3405.072594] [drm] VCN decode and encode initialized successfully(under DPG Mode).
[ 3405.072704] amdgpu 0000:09:00.0: [drm:jpeg_v4_0_hw_init [amdgpu]] JPEG decode initialized successfully.
[ 3405.072987] amdgpu 0000:09:00.0: amdgpu: ring gfx_0.0.0 uses VM inv eng 0 on hub 0
[ 3405.072990] amdgpu 0000:09:00.0: amdgpu: ring comp_1.0.0 uses VM inv eng 1 on hub 0
[ 3405.072992] amdgpu 0000:09:00.0: amdgpu: ring comp_1.1.0 uses VM inv eng 4 on hub 0
[ 3405.072993] amdgpu 0000:09:00.0: amdgpu: ring comp_1.2.0 uses VM inv eng 6 on hub 0
[ 3405.072994] amdgpu 0000:09:00.0: amdgpu: ring comp_1.3.0 uses VM inv eng 7 on hub 0
[ 3405.072996] amdgpu 0000:09:00.0: amdgpu: ring comp_1.0.1 uses VM inv eng 8 on hub 0
[ 3405.072997] amdgpu 0000:09:00.0: amdgpu: ring comp_1.1.1 uses VM inv eng 9 on hub 0
[ 3405.072998] amdgpu 0000:09:00.0: amdgpu: ring comp_1.2.1 uses VM inv eng 10 on hub 0
[ 3405.072999] amdgpu 0000:09:00.0: amdgpu: ring comp_1.3.1 uses VM inv eng 11 on hub 0
[ 3405.073000] amdgpu 0000:09:00.0: amdgpu: ring sdma0 uses VM inv eng 12 on hub 0
[ 3405.073001] amdgpu 0000:09:00.0: amdgpu: ring vcn_unified_0 uses VM inv eng 0 on hub 8
[ 3405.073002] amdgpu 0000:09:00.0: amdgpu: ring jpeg_dec uses VM inv eng 1 on hub 8
[ 3405.073003] amdgpu 0000:09:00.0: amdgpu: ring mes_kiq_3.1.0 uses VM inv eng 13 on hub 0
[ 3405.079397] [drm] ring gfx_32771.1.1 was added
[ 3405.079944] [drm] ring compute_32771.2.2 was added
[ 3405.080466] [drm] ring sdma_32771.3.3 was added
[ 3405.080493] [drm] ring gfx_32771.1.1 ib test pass
[ 3405.080521] [drm] ring compute_32771.2.2 ib test pass
[ 3405.080625] [drm] ring sdma_32771.3.3 ib test pass
[ 3405.159037] xhci_hcd:xhci_hub_control:1271: xhci_hcd 0000:09:00.3: Get port status 1-3 read: 0x2202a0, return 0x110100
[ 3405.159086] usbcore:hub_port_wait_reset:2896: usb usb1-port3: not reset yet, waiting 200ms
[ 3405.267125] cs35l41-hda i2c-CSC3551:00-cs35l41-hda.0: DSP1: Firmware: 400a4 vendor: 0x2 v0.43.1, 2 algorithms
[ 3405.269125] cs35l41-hda i2c-CSC3551:00-cs35l41-hda.0: DSP1: cirrus/cs35l41-dsp1-spk-prot-104317f3-spkid1-l0.bin: v0.43.1
[ 3405.269134] cs35l41-hda i2c-CSC3551:00-cs35l41-hda.0: DSP1: spk-prot: C:\Users\dchunyi\Documents\Asus_ROG\Project\NR2301\Tuning\20221125\104317F3_221125_V1_A0.bin
[ 3405.366663] xhci_hcd:xhci_hub_control:1271: xhci_hcd 0000:09:00.3: Get port status 1-3 read: 0x2202a0, return 0x110100
[ 3405.366689] usbcore:hub_port_wait_reset:2896: usb usb1-port3: not reset yet, waiting 200ms
[ 3405.366707] xhci_hcd:xhci_clear_port_change_bit:658: xhci_hcd 0000:09:00.3: clear port3 reset change, portsc: 0x202a0
[ 3405.366727] xhci_hcd:xhci_disable_port:607: xhci_hcd 0000:09:00.3: disable port 1-3, portsc: 0x202a0
[ 3405.366748] usbcore:hub_port_logical_disconnect:1002: usb usb1-port3: logical disconnect
[ 3405.366754] xhci_hcd:xhci_disable_port:607: xhci_hcd 0000:09:00.3: disable port 1-3, portsc: 0x202a0
[ 3405.366763] usbcore:finish_port_resume:3587: usb 1-3: gone after usb resume? status -19
[ 3405.366767] usbcore:usb_port_resume:3769: usb 1-3: can't resume, status -19
[ 3405.366770] usbcore:hub_port_logical_disconnect:1002: usb usb1-port3: logical disconnect
[ 3405.366775] xhci_hcd:xhci_disable_port:607: xhci_hcd 0000:09:00.3: disable port 1-3, portsc: 0x202a0
[ 3405.368751] PM: resume devices took 1.174 seconds
[ 3405.368816] usbcore:usb_probe_interface:327: xpad 1-2:1.0: usb_probe_interface
[ 3405.368822] usbcore:usb_probe_interface:349: xpad 1-2:1.0: usb_probe_interface - got id
[ 3405.368866] acpi:handle_to_device:576: ACPI: \_SB_.PCI0.GPP7.CADR._ADR: ACPI: No context!
[ 3405.368873] acpi:handle_to_device:576: ACPI: \_SB_.PCI0.GPP7.CADR.DGPS: ACPI: No context!
[ 3405.368878] acpi:handle_to_device:576: ACPI: \_SB_.PCI0.GPP7.CADR._PSC: ACPI: No context!
[ 3405.368882] acpi:handle_to_device:576: ACPI: \_SB_.PCI0.GPP7.CADR.CROP: ACPI: No context!
[ 3405.368885] acpi:handle_to_device:576: ACPI: \_SB_.PCI0.GPP7.CADR.CR74: ACPI: No context!
[ 3405.368889] acpi:handle_to_device:576: ACPI: \_SB_.PCI0.GPP7.CADR.CR7C: ACPI: No context!
[ 3405.368894] acpi:handle_to_device:576: ACPI: \_SB_.PCI0.GPP7.CADR.CULK: ACPI: No context!
[ 3405.368898] acpi:handle_to_device:576: ACPI: \_SB_.PCI0.GPP7.CADR._RMV: ACPI: No context!
[ 3405.368902] acpi:handle_to_device:576: ACPI: \_SB_.PCI0.GPP7.CADR._PS0: ACPI: No context!
[ 3405.368908] acpi:handle_to_device:576: ACPI: \_SB_.PCI0.GPP7.CADR._PS3: ACPI: No context!
[ 3405.368912] acpi:handle_to_device:576: ACPI: \_SB_.PCI0.GPP7.CADR._STA: ACPI: No context!
[ 3405.368964] acpi:acpi_device_set_power:171: ACPI: \_SB_.PCI0.GPP7.CADR: PM: Power state change: D0 -> D0
[ 3405.368972] acpi:acpi_device_set_power:290: ACPI: \_SB_.PCI0.GPP7.CADR: PM: Already in D0
[ 3405.368993] OOM killer enabled.
[ 3405.368994] Restarting tasks ... 
[ 3405.369049] input: Microsoft X-Box 360 pad as /devices/pci0000:00/0000:00:08.1/0000:09:00.3/usb1/1-2/1-2:1.0/input/input67
[ 3405.369081] usbcore:hub_event:5783: hub 1-0:1.0: state 7 ports 5 chg 0008 evt 0008
[ 3405.369083] usbcore:hub_event:5783: hub 3-0:1.0: state 7 ports 1 chg 0000 evt 0000
[ 3405.369091] usbcore:hub_event:5783: hub 6-0:1.0: state 7 ports 1 chg 0000 evt 0000
[ 3405.369091] usbcore:hub_event:5783: hub 5-0:1.0: state 7 ports 1 chg 0000 evt 0002
[ 3405.369092] usbcore:hub_event:5783: hub 7-0:1.0: state 7 ports 1 chg 0000 evt 0000
[ 3405.369093] usbcore:hub_event:5783: hub 5-1:1.0: state 7 ports 5 chg 0000 evt 0000
[ 3405.369099] usbcore:hub_event:5783: hub 8-0:1.0: state 7 ports 1 chg 0000 evt 0000
[ 3405.369101] usbcore:hub_event:5783: hub 5-1.4.2:1.0: state 7 ports 4 chg 0000 evt 0012
[ 3405.369102] usbcore:hub_event:5783: hub 4-0:1.0: state 7 ports 1 chg 0000 evt 0000
[ 3405.369107] xhci_hcd:xhci_hub_control:1271: xhci_hcd 0000:09:00.3: Get port status 1-3 read: 0x202a0, return 0x10100
[ 3405.369108] usbcore:hub_event:5783: hub 5-1.4:1.0: state 7 ports 4 chg 0000 evt 0000
[ 3405.369108] xhci_hcd:xhci_hub_control:1271: xhci_hcd 0000:0b:00.3: Get port status 5-1 read: 0xe03, return 0x503
[ 3405.369111] usbcore:hub_event:5783: hub 2-0:1.0: state 7 ports 2 chg 0000 evt 0000
[ 3405.369133] xhci_hcd:xhci_clear_port_change_bit:658: xhci_hcd 0000:09:00.3: clear port3 connect change, portsc: 0x2a0
[ 3405.369143] usbcore:hub_port_connect_change:5542: usb usb1-port3: status 0100, change 0001, 12 Mb/s
[ 3405.369147] usb 1-3: USB disconnect, device number 10
[ 3405.369153] usbcore:usb_disconnect:2259: usb 1-3: unregistering device
[ 3405.369158] usbcore:usb_disable_device:1413: usb 1-3: unregistering interface 1-3:1.0
[ 3405.372541] xhci_hcd:xhci_hub_control:1509: xhci_hcd 0000:0b:00.4: set port remote wake mask, actual port 8-1 status  = 0xe0002a0
[ 3405.372557] usbcore:hub_suspend:3907: hub 8-0:1.0: hub_suspend
[ 3405.372565] usbcore:hcd_bus_suspend:2250: usb usb8: bus auto-suspend, wakeup 1
[ 3405.372572] xhci_hcd:xhci_hub_status_data:1705: xhci_hcd 0000:0b:00.4: xhci_hub_status_data: stopping usb8 port polling
[ 3405.372578] usbcore:hub_suspend:3907: hub 7-0:1.0: hub_suspend
[ 3405.372596] usbcore:hcd_bus_suspend:2250: usb usb7: bus auto-suspend, wakeup 1
[ 3405.372600] xhci_hcd:xhci_hub_status_data:1705: xhci_hcd 0000:0b:00.4: xhci_hub_status_data: stopping usb7 port polling
[ 3405.372608] done.
[ 3405.372609] xhci_hcd:xhci_hub_control:1509: xhci_hcd 0000:0b:00.3: set port remote wake mask, actual port 6-1 status  = 0xe0002a0
[ 3405.372615] usbcore:hub_suspend:3907: hub 6-0:1.0: hub_suspend
[ 3405.372620] usbcore:hcd_bus_suspend:2250: usb usb6: bus auto-suspend, wakeup 1
[ 3405.372630] xhci_hcd:xhci_hub_status_data:1705: xhci_hcd 0000:0b:00.3: xhci_hub_status_data: stopping usb6 port polling
[ 3405.372640] xhci_hcd:xhci_hub_control:1509: xhci_hcd 0000:09:00.4: set port remote wake mask, actual port 4-1 status  = 0xe0002a0
[ 3405.372657] usbcore:hub_suspend:3907: hub 4-0:1.0: hub_suspend
[ 3405.372663] usbcore:hcd_bus_suspend:2250: usb usb4: bus auto-suspend, wakeup 1
[ 3405.372667] xhci_hcd:xhci_hub_status_data:1705: xhci_hcd 0000:09:00.4: xhci_hub_status_data: stopping usb4 port polling
[ 3405.372672] usbcore:hub_suspend:3907: hub 3-0:1.0: hub_suspend
[ 3405.372678] usbcore:hcd_bus_suspend:2250: usb usb3: bus auto-suspend, wakeup 1
[ 3405.372683] random: crng reseeded on system resumption
[ 3405.372684] xhci_hcd:xhci_hub_status_data:1705: xhci_hcd 0000:09:00.4: xhci_hub_status_data: stopping usb3 port polling
[ 3405.372694] xhci_hcd:xhci_hub_control:1509: xhci_hcd 0000:09:00.3: set port remote wake mask, actual port 2-1 status  = 0xe0002a0
[ 3405.372712] xhci_hcd:xhci_hub_control:1509: xhci_hcd 0000:09:00.3: set port remote wake mask, actual port 2-2 status  = 0xe0002a0
[ 3405.372717] usbcore:hub_suspend:3907: hub 2-0:1.0: hub_suspend
[ 3405.372721] usbcore:hcd_bus_suspend:2250: usb usb2: bus auto-suspend, wakeup 1
[ 3405.372755] xhci_hcd:xhci_hub_status_data:1705: xhci_hcd 0000:09:00.3: xhci_hub_status_data: stopping usb2 port polling
[ 3405.373914] acpi:acpi_device_set_power:171: ACPI: \_SB_.I2CB: PM: Power state change: D0 -> D3cold
[ 3405.373921] acpi:acpi_device_set_power:171: ACPI: \_SB_.I2CA: PM: Power state change: D0 -> D3cold
[ 3405.374218] xhci_hcd:xhci_disable_hub_port_wake:825: xhci_hcd 0000:0b:00.4: config port 8-1 wake bits, portsc: 0xa0002a0, write: 0xa0202a0
[ 3405.374223] xhci_hcd:xhci_disable_hub_port_wake:825: xhci_hcd 0000:0b:00.4: config port 7-1 wake bits, portsc: 0xa0002a0, write: 0xa0202a0
[ 3405.374226] xhci_hcd:xhci_suspend:898: xhci_hcd 0000:0b:00.4: xhci_suspend: stopping usb7 port polling.
[ 3405.374245] xhci_hcd:xhci_dbg_trace:31: xhci_hcd 0000:0b:00.4: // Setting command ring address to 0xffffe001
[ 3405.374331] usbcore:hcd_pci_runtime_suspend:607: xhci_hcd 0000:0b:00.4: hcd_pci_runtime_suspend: 0
[ 3405.374542] xhci_hcd:xhci_disable_hub_port_wake:825: xhci_hcd 0000:09:00.4: config port 4-1 wake bits, portsc: 0xa0002a0, write: 0xa0202a0
[ 3405.374546] xhci_hcd:xhci_disable_hub_port_wake:825: xhci_hcd 0000:09:00.4: config port 3-1 wake bits, portsc: 0xa0002a0, write: 0xa0202a0
[ 3405.374548] xhci_hcd:xhci_suspend:898: xhci_hcd 0000:09:00.4: xhci_suspend: stopping usb3 port polling.
[ 3405.374567] xhci_hcd:xhci_dbg_trace:31: xhci_hcd 0000:09:00.4: // Setting command ring address to 0xffffe001
[ 3405.374644] usbcore:hcd_pci_runtime_suspend:607: xhci_hcd 0000:09:00.4: hcd_pci_runtime_suspend: 0
[ 3405.375441] acpi:acpi_device_set_power:283: ACPI: \_SB_.I2CA: PM: Power state changed to D3hot
[ 3405.375472] acpi:acpi_enable_wakeup_device_power:720: acpi device:06: Enabling wakeup power (count 0)
[ 3405.375504] acpi:acpi_enable_wakeup_device_power:744: acpi device:06: Wakeup power enabled
[ 3405.375525] acpi:__acpi_device_wakeup_enable:873: ACPI: \_SB_.PCI0.GPP0: PM: GPE 8 enabled for wakeup
[ 3405.375540] acpi:acpi_pm_set_device_wakeup:958: pcieport 0000:00:01.1: Wakeup enabled by ACPI
[ 3405.376842] acpi:acpi_device_set_power:283: ACPI: \_SB_.I2CB: PM: Power state changed to D3hot
[ 3405.376955] acpi:acpi_enable_wakeup_device_power:720: acpi device:3c: Enabling wakeup power (count 0)
[ 3405.377212] acpi:acpi_enable_wakeup_device_power:744: acpi device:3c: Wakeup power enabled
[ 3405.377218] acpi:__acpi_device_wakeup_enable:873: ACPI: \_SB_.PCI0.GP17.XHC1: PM: GPE19 enabled for wakeup
[ 3405.377220] acpi:acpi_pm_set_device_wakeup:958: xhci_hcd 0000:09:00.4: Wakeup enabled by ACPI
[ 3405.379242] acpi:acpi_enable_wakeup_device_power:720: acpi device:4b: Enabling wakeup power (count 0)
[ 3405.379278] acpi:acpi_enable_wakeup_device_power:744: acpi device:4b: Wakeup power enabled
[ 3405.379284] acpi:__acpi_device_wakeup_enable:873: ACPI: \_SB_.PCI0.GP19.XHC4: PM: GPE1A enabled for wakeup
[ 3405.379287] acpi:acpi_pm_set_device_wakeup:958: xhci_hcd 0000:0b:00.4: Wakeup enabled by ACPI
[ 3405.381255] xhci_hcd:process_bulk_intr_td:2490: xhci_hcd 0000:09:00.3: ep 0x81 - asked for 16 bytes, 10 bytes untransferred
[ 3405.381298] PM: suspend exit
[ 3405.384140] xhci_hcd:handle_tx_event:2644: xhci_hcd 0000:09:00.3: Stalled endpoint for slot 1 ep 0
[ 3405.384144] xhci_hcd:xhci_reset_halted_ep:918: xhci_hcd 0000:09:00.3: Hard-reset ep 0, slot 1
[ 3405.384148] xhci_hcd:xhci_ring_cmd_db:360: xhci_hcd 0000:09:00.3: // Ding dong!
[ 3405.384177] xhci_hcd:xhci_dbg_trace:31: xhci_hcd 0000:09:00.3: Ignoring reset ep completion code of 1
[ 3405.384179] xhci_hcd:xhci_dbg_trace:31: xhci_hcd 0000:09:00.3: Removing canceled TD starting at 0xffff4390 (dma) in stream 0 URB 00000000880c5056
[ 3405.384182] xhci_hcd:xhci_dbg_trace:31: xhci_hcd 0000:09:00.3: Set TR Deq ptr 0xffff43c0, cycle 1

[ 3405.384184] xhci_hcd:xhci_ring_cmd_db:360: xhci_hcd 0000:09:00.3: // Ding dong!
[ 3405.384186] xhci_hcd:xhci_giveback_invalidated_tds:898: xhci_hcd 0000:09:00.3: xhci_giveback_invalidated_tds: Keep cancelled URB 00000000880c5056 TD as cancel_status is 2
[ 3405.384216] xhci_hcd:xhci_dbg_trace:31: xhci_hcd 0000:09:00.3: Successful Set TR Deq Ptr cmd, deq = @ffff43c0
[ 3405.384219] xhci_hcd:xhci_handle_cmd_set_deq:1414: xhci_hcd 0000:09:00.3: xhci_handle_cmd_set_deq: Giveback cancelled URB 00000000880c5056 TD
[ 3405.384220] xhci_hcd:xhci_td_cleanup:868: xhci_hcd 0000:09:00.3: Giveback URB 00000000880c5056, len = 0, expected = 20, status = -32
[ 3405.384231] input input67: unable to receive magic message: -32
[ 3405.384846] acpi:acpi_device_set_power:171: ACPI: \_SB_.PCI0.GP17.HDAU: PM: Power state change: D0 -> D3cold
[ 3405.384948] acpi:__acpi_power_off:434: ACPI: \_SB_.PCI0.GP17.HDAU.PWRS: ACPI: PM: Power resource turned off
[ 3405.384951] acpi:acpi_device_set_power:283: ACPI: \_SB_.PCI0.GP17.HDAU: PM: Power state changed to D3cold
[ 3405.385751] acpi:acpi_device_set_power:171: ACPI: \_SB_.PCI0.GP17.ACP_: PM: Power state change: D0 -> D3cold
[ 3405.386035] acpi:__acpi_power_off:434: ACPI: \_SB_.PCI0.GP17.ACP_.PWRS: ACPI: PM: Power resource turned off
[ 3405.386039] acpi:acpi_device_set_power:283: ACPI: \_SB_.PCI0.GP17.ACP_: PM: Power state changed to D3cold
[ 3405.386650] acpi:acpi_device_set_power:171: ACPI: \_SB_.PCI0.GPP0: PM: Power state change: D0 -> D3cold
[ 3405.386768] acpi:__acpi_power_off:434: ACPI: \_SB_.PCI0.GPP0.M237: ACPI: PM: Power resource turned off
[ 3405.386771] acpi:acpi_device_set_power:283: ACPI: \_SB_.PCI0.GPP0: PM: Power state changed to D3cold
[ 3405.388713] acpi:acpi_device_set_power:171: ACPI: \_SB_.PCI0.GP17.XHC1: PM: Power state change: D0 -> D3cold
[ 3405.389006] acpi:__acpi_power_off:434: ACPI: \_SB_.PCI0.GP17.XHC1.PWRS: ACPI: PM: Power resource turned off
[ 3405.389009] acpi:acpi_device_set_power:283: ACPI: \_SB_.PCI0.GP17.XHC1: PM: Power state changed to D3cold
[ 3405.390792] acpi:acpi_device_set_power:171: ACPI: \_SB_.PCI0.GP19.XHC4: PM: Power state change: D0 -> D3cold
[ 3405.391101] acpi:__acpi_power_off:434: ACPI: \_SB_.PCI0.GP19.XHC4.PWRS: ACPI: PM: Power resource turned off
[ 3405.391103] acpi:acpi_device_set_power:283: ACPI: \_SB_.PCI0.GP19.XHC4: PM: Power state changed to D3cold
[ 3405.392164] xhci_hcd:process_bulk_intr_td:2490: xhci_hcd 0000:09:00.3: ep 0x81 - asked for 64 bytes, 61 bytes untransferred
[ 3405.396145] xhci_hcd:process_bulk_intr_td:2490: xhci_hcd 0000:09:00.3: ep 0x81 - asked for 64 bytes, 61 bytes untransferred
[ 3405.400144] xhci_hcd:process_bulk_intr_td:2490: xhci_hcd 0000:09:00.3: ep 0x81 - asked for 64 bytes, 61 bytes untransferred
[ 3405.400649] xhci_hcd:xhci_dbg_trace:31: xhci_hcd 0000:09:00.3: Cancel URB 000000000eee53ce, dev 2, ep 0x81, starting at offset 0xfffdb030
[ 3405.400660] xhci_hcd:xhci_ring_cmd_db:360: xhci_hcd 0000:09:00.3: // Ding dong!
[ 3405.400674] xhci_hcd:handle_tx_event:2629: xhci_hcd 0000:09:00.3: Stopped on Transfer TRB for slot 1 ep 2
[ 3405.400677] xhci_hcd:xhci_dbg_trace:31: xhci_hcd 0000:09:00.3: Removing canceled TD starting at 0xfffdb030 (dma) in stream 0 URB 000000000eee53ce
[ 3405.400680] xhci_hcd:xhci_dbg_trace:31: xhci_hcd 0000:09:00.3: Set TR Deq ptr 0xfffdb040, cycle 1

[ 3405.400682] xhci_hcd:xhci_ring_cmd_db:360: xhci_hcd 0000:09:00.3: // Ding dong!
[ 3405.400684] xhci_hcd:xhci_giveback_invalidated_tds:898: xhci_hcd 0000:09:00.3: xhci_giveback_invalidated_tds: Keep cancelled URB 000000000eee53ce TD as cancel_status is 2
[ 3405.400712] xhci_hcd:xhci_dbg_trace:31: xhci_hcd 0000:09:00.3: Successful Set TR Deq Ptr cmd, deq = @fffdb040
[ 3405.400714] xhci_hcd:xhci_handle_cmd_set_deq:1414: xhci_hcd 0000:09:00.3: xhci_handle_cmd_set_deq: Giveback cancelled URB 000000000eee53ce TD
[ 3405.400716] xhci_hcd:xhci_td_cleanup:868: xhci_hcd 0000:09:00.3: Giveback URB 000000000eee53ce, len = 0, expected = 64, status = -115
[ 3405.423154] xhci_hcd:handle_tx_event:2644: xhci_hcd 0000:09:00.3: Stalled endpoint for slot 1 ep 0
[ 3405.423160] xhci_hcd:xhci_reset_halted_ep:918: xhci_hcd 0000:09:00.3: Hard-reset ep 0, slot 1
[ 3405.423164] xhci_hcd:xhci_ring_cmd_db:360: xhci_hcd 0000:09:00.3: // Ding dong!
[ 3405.423190] xhci_hcd:xhci_dbg_trace:31: xhci_hcd 0000:09:00.3: Ignoring reset ep completion code of 1
[ 3405.423192] xhci_hcd:xhci_dbg_trace:31: xhci_hcd 0000:09:00.3: Removing canceled TD starting at 0xffff43c0 (dma) in stream 0 URB 000000006c5e2218
[ 3405.423195] xhci_hcd:xhci_dbg_trace:31: xhci_hcd 0000:09:00.3: Set TR Deq ptr 0xffff43f0, cycle 1

[ 3405.423197] xhci_hcd:xhci_ring_cmd_db:360: xhci_hcd 0000:09:00.3: // Ding dong!
[ 3405.423199] xhci_hcd:xhci_giveback_invalidated_tds:898: xhci_hcd 0000:09:00.3: xhci_giveback_invalidated_tds: Keep cancelled URB 000000006c5e2218 TD as cancel_status is 2
[ 3405.423230] xhci_hcd:xhci_dbg_trace:31: xhci_hcd 0000:09:00.3: Successful Set TR Deq Ptr cmd, deq = @ffff43f0
[ 3405.423232] xhci_hcd:xhci_handle_cmd_set_deq:1414: xhci_hcd 0000:09:00.3: xhci_handle_cmd_set_deq: Giveback cancelled URB 000000006c5e2218 TD
[ 3405.423234] xhci_hcd:xhci_td_cleanup:868: xhci_hcd 0000:09:00.3: Giveback URB 000000006c5e2218, len = 0, expected = 20, status = -32
[ 3405.423250] input input67: unable to receive magic message: -32
[ 3405.424159] xhci_hcd:process_bulk_intr_td:2490: xhci_hcd 0000:09:00.3: ep 0x81 - asked for 64 bytes, 61 bytes untransferred
[ 3405.428169] xhci_hcd:process_bulk_intr_td:2490: xhci_hcd 0000:09:00.3: ep 0x81 - asked for 64 bytes, 44 bytes untransferred
[ 3405.432158] xhci_hcd:process_bulk_intr_td:2490: xhci_hcd 0000:09:00.3: ep 0x81 - asked for 64 bytes, 61 bytes untransferred
[ 3405.436173] xhci_hcd:process_bulk_intr_td:2490: xhci_hcd 0000:09:00.3: ep 0x81 - asked for 64 bytes, 44 bytes untransferred
[ 3405.437687] xhci_hcd:xhci_dbg_trace:31: xhci_hcd 0000:09:00.3: Cancel URB 000000000eee53ce, dev 2, ep 0x81, starting at offset 0xfffdb080
[ 3405.437699] xhci_hcd:xhci_ring_cmd_db:360: xhci_hcd 0000:09:00.3: // Ding dong!
[ 3405.437720] xhci_hcd:handle_tx_event:2629: xhci_hcd 0000:09:00.3: Stopped on Transfer TRB for slot 1 ep 2
[ 3405.437726] xhci_hcd:xhci_dbg_trace:31: xhci_hcd 0000:09:00.3: Removing canceled TD starting at 0xfffdb080 (dma) in stream 0 URB 000000000eee53ce
[ 3405.437732] xhci_hcd:xhci_dbg_trace:31: xhci_hcd 0000:09:00.3: Set TR Deq ptr 0xfffdb090, cycle 1

[ 3405.437736] xhci_hcd:xhci_ring_cmd_db:360: xhci_hcd 0000:09:00.3: // Ding dong!
[ 3405.437740] xhci_hcd:xhci_giveback_invalidated_tds:898: xhci_hcd 0000:09:00.3: xhci_giveback_invalidated_tds: Keep cancelled URB 000000000eee53ce TD as cancel_status is 2
[ 3405.437745] xhci_hcd:xhci_dbg_trace:31: xhci_hcd 0000:09:00.3: Successful Set TR Deq Ptr cmd, deq = @fffdb090
[ 3405.437749] xhci_hcd:xhci_handle_cmd_set_deq:1414: xhci_hcd 0000:09:00.3: xhci_handle_cmd_set_deq: Giveback cancelled URB 000000000eee53ce TD
[ 3405.437753] xhci_hcd:xhci_td_cleanup:868: xhci_hcd 0000:09:00.3: Giveback URB 000000000eee53ce, len = 0, expected = 64, status = -115
[ 3405.460261] acpi:acpi_device_set_power:171: ACPI: \_SB_.PCI0.GP17.HDAU: PM: Power state change: D3cold -> D0
[ 3405.460400] acpi:__acpi_power_on:376: ACPI: \_SB_.PCI0.GP17.HDAU.PWRS: ACPI: PM: Power resource turned on
[ 3405.460438] acpi:acpi_device_set_power:283: ACPI: \_SB_.PCI0.GP17.HDAU: PM: Power state changed to D0
[ 3405.485862] acpi:acpi_device_set_power:171: ACPI: \_SB_.PCI0.GP17.HDAU: PM: Power state change: D0 -> D3cold
[ 3405.485979] acpi:__acpi_power_off:434: ACPI: \_SB_.PCI0.GP17.HDAU.PWRS: ACPI: PM: Power resource turned off
[ 3405.485981] acpi:acpi_device_set_power:283: ACPI: \_SB_.PCI0.GP17.HDAU: PM: Power state changed to D3cold
[ 3405.498849] usbcore:usb_disable_device:1413: usb 1-3: unregistering interface 1-3:1.1
[ 3405.570936] usbcore:usb_disable_device:1413: usb 1-3: unregistering interface 1-3:1.2
[ 3405.614680] xhci_hcd:xhci_hub_status_data:1705: xhci_hcd 0000:09:00.3: xhci_hub_status_data: stopping usb1 port polling
[ 3405.641759] usbcore:usb_deregister_dev:183: usbhid 1-3:1.2: removing 96 minor
[ 3405.642050] usbcore:usb_disable_device:1436: usb 1-3: usb_disable_device nuking all URBs
[ 3405.642057] xhci_hcd:xhci_drop_endpoint:1811: xhci_hcd 0000:09:00.3: xhci_drop_endpoint called for udev 00000000a20e338a
[ 3405.642078] xhci_hcd:xhci_drop_endpoint:1853: xhci_hcd 0000:09:00.3: drop ep 0x81, slot id 2, new drop flags = 0x8, new add flags = 0x0
[ 3405.642083] xhci_hcd:xhci_drop_endpoint:1811: xhci_hcd 0000:09:00.3: xhci_drop_endpoint called for udev 00000000a20e338a
[ 3405.642101] xhci_hcd:xhci_drop_endpoint:1853: xhci_hcd 0000:09:00.3: drop ep 0x82, slot id 2, new drop flags = 0x28, new add flags = 0x0
[ 3405.642105] xhci_hcd:xhci_drop_endpoint:1811: xhci_hcd 0000:09:00.3: xhci_drop_endpoint called for udev 00000000a20e338a
[ 3405.642122] xhci_hcd:xhci_drop_endpoint:1853: xhci_hcd 0000:09:00.3: drop ep 0x83, slot id 2, new drop flags = 0xa8, new add flags = 0x0
[ 3405.642126] xhci_hcd:xhci_drop_endpoint:1811: xhci_hcd 0000:09:00.3: xhci_drop_endpoint called for udev 00000000a20e338a
[ 3405.642144] xhci_hcd:xhci_drop_endpoint:1853: xhci_hcd 0000:09:00.3: drop ep 0x4, slot id 2, new drop flags = 0x1a8, new add flags = 0x0
[ 3405.642148] xhci_hcd:xhci_check_bandwidth:2922: xhci_hcd 0000:09:00.3: xhci_check_bandwidth called for udev 00000000a20e338a
[ 3405.642154] xhci_hcd:xhci_ring_cmd_db:360: xhci_hcd 0000:09:00.3: // Ding dong!
[ 3405.647157] xhci_hcd:xhci_dbg_trace:31: xhci_hcd 0000:09:00.3: Successful Endpoint Configure command
[ 3405.647421] xhci_hcd:xhci_ring_cmd_db:360: xhci_hcd 0000:09:00.3: // Ding dong!
[ 3405.647454] xhci_hcd:xhci_hub_control:1271: xhci_hcd 0000:09:00.3: Get port status 1-3 read: 0x2a0, return 0x100
[ 3405.673703] xhci_hcd:xhci_hub_control:1271: xhci_hcd 0000:09:00.3: Get port status 1-3 read: 0x2a0, return 0x100
[ 3405.696153] acpi:acpi_device_set_power:171: ACPI: \_SB_.PCI0.GP17.HDAU: PM: Power state change: D3cold -> D0
[ 3405.696337] acpi:__acpi_power_on:376: ACPI: \_SB_.PCI0.GP17.HDAU.PWRS: ACPI: PM: Power resource turned on
[ 3405.696413] acpi:acpi_device_set_power:283: ACPI: \_SB_.PCI0.GP17.HDAU: PM: Power state changed to D0
[ 3405.700701] xhci_hcd:xhci_hub_control:1271: xhci_hcd 0000:09:00.3: Get port status 1-3 read: 0x2a0, return 0x100
[ 3405.722846] acpi:acpi_device_set_power:171: ACPI: \_SB_.PCI0.GP17.HDAU: PM: Power state change: D0 -> D3cold
[ 3405.722994] acpi:__acpi_power_off:434: ACPI: \_SB_.PCI0.GP17.HDAU.PWRS: ACPI: PM: Power resource turned off
[ 3405.722998] acpi:acpi_device_set_power:283: ACPI: \_SB_.PCI0.GP17.HDAU: PM: Power state changed to D3cold
[ 3405.728780] xhci_hcd:xhci_hub_control:1271: xhci_hcd 0000:09:00.3: Get port status 1-3 read: 0x2a0, return 0x100
[ 3405.755665] xhci_hcd:xhci_hub_control:1271: xhci_hcd 0000:09:00.3: Get port status 1-3 read: 0x2a0, return 0x100
[ 3405.755686] usbcore:hub_port_debounce:4630: usb usb1-port3: debounce total 100ms stable 100ms status 0x100
[ 3405.914164] xhci_hcd:handle_tx_event:2644: xhci_hcd 0000:09:00.3: Stalled endpoint for slot 1 ep 0
[ 3405.914173] xhci_hcd:xhci_reset_halted_ep:918: xhci_hcd 0000:09:00.3: Hard-reset ep 0, slot 1
[ 3405.914180] xhci_hcd:xhci_ring_cmd_db:360: xhci_hcd 0000:09:00.3: // Ding dong!
[ 3405.914198] xhci_hcd:xhci_dbg_trace:31: xhci_hcd 0000:09:00.3: Ignoring reset ep completion code of 1
[ 3405.914201] xhci_hcd:xhci_dbg_trace:31: xhci_hcd 0000:09:00.3: Removing canceled TD starting at 0xffff43f0 (dma) in stream 0 URB 000000005496e9bb
[ 3405.914208] xhci_hcd:xhci_dbg_trace:31: xhci_hcd 0000:09:00.3: Set TR Deq ptr 0xffff4420, cycle 1

[ 3405.914211] xhci_hcd:xhci_ring_cmd_db:360: xhci_hcd 0000:09:00.3: // Ding dong!
[ 3405.914215] xhci_hcd:xhci_giveback_invalidated_tds:898: xhci_hcd 0000:09:00.3: xhci_giveback_invalidated_tds: Keep cancelled URB 000000005496e9bb TD as cancel_status is 2
[ 3405.914220] xhci_hcd:xhci_dbg_trace:31: xhci_hcd 0000:09:00.3: Successful Set TR Deq Ptr cmd, deq = @ffff4420
[ 3405.914224] xhci_hcd:xhci_handle_cmd_set_deq:1414: xhci_hcd 0000:09:00.3: xhci_handle_cmd_set_deq: Giveback cancelled URB 000000005496e9bb TD
[ 3405.914228] xhci_hcd:xhci_td_cleanup:868: xhci_hcd 0000:09:00.3: Giveback URB 000000005496e9bb, len = 0, expected = 20, status = -32
[ 3405.914251] input input67: unable to receive magic message: -32
[ 3405.916164] xhci_hcd:process_bulk_intr_td:2490: xhci_hcd 0000:09:00.3: ep 0x81 - asked for 64 bytes, 44 bytes untransferred
[ 3405.920179] xhci_hcd:process_bulk_intr_td:2490: xhci_hcd 0000:09:00.3: ep 0x81 - asked for 64 bytes, 44 bytes untransferred
[ 3405.931693] xhci_hcd:xhci_dbg_trace:31: xhci_hcd 0000:09:00.3: Cancel URB 000000000eee53ce, dev 2, ep 0x81, starting at offset 0xfffdb0b0
[ 3405.931710] xhci_hcd:xhci_ring_cmd_db:360: xhci_hcd 0000:09:00.3: // Ding dong!
[ 3405.931737] xhci_hcd:handle_tx_event:2629: xhci_hcd 0000:09:00.3: Stopped on Transfer TRB for slot 1 ep 2
[ 3405.931745] xhci_hcd:xhci_dbg_trace:31: xhci_hcd 0000:09:00.3: Removing canceled TD starting at 0xfffdb0b0 (dma) in stream 0 URB 000000000eee53ce
[ 3405.931751] xhci_hcd:xhci_dbg_trace:31: xhci_hcd 0000:09:00.3: Set TR Deq ptr 0xfffdb0c0, cycle 1

[ 3405.931755] xhci_hcd:xhci_ring_cmd_db:360: xhci_hcd 0000:09:00.3: // Ding dong!
[ 3405.931759] xhci_hcd:xhci_giveback_invalidated_tds:898: xhci_hcd 0000:09:00.3: xhci_giveback_invalidated_tds: Keep cancelled URB 000000000eee53ce TD as cancel_status is 2
[ 3405.931765] xhci_hcd:xhci_dbg_trace:31: xhci_hcd 0000:09:00.3: Successful Set TR Deq Ptr cmd, deq = @fffdb0c0
[ 3405.931769] xhci_hcd:xhci_handle_cmd_set_deq:1414: xhci_hcd 0000:09:00.3: xhci_handle_cmd_set_deq: Giveback cancelled URB 000000000eee53ce TD
[ 3405.931773] xhci_hcd:xhci_td_cleanup:868: xhci_hcd 0000:09:00.3: Giveback URB 000000000eee53ce, len = 0, expected = 64, status = -115
[ 3405.949162] xhci_hcd:handle_tx_event:2644: xhci_hcd 0000:09:00.3: Stalled endpoint for slot 1 ep 0
[ 3405.949171] xhci_hcd:xhci_reset_halted_ep:918: xhci_hcd 0000:09:00.3: Hard-reset ep 0, slot 1
[ 3405.949176] xhci_hcd:xhci_ring_cmd_db:360: xhci_hcd 0000:09:00.3: // Ding dong!
[ 3405.949198] xhci_hcd:xhci_dbg_trace:31: xhci_hcd 0000:09:00.3: Ignoring reset ep completion code of 1
[ 3405.949201] xhci_hcd:xhci_dbg_trace:31: xhci_hcd 0000:09:00.3: Removing canceled TD starting at 0xffff4420 (dma) in stream 0 URB 000000005496e9bb
[ 3405.949207] xhci_hcd:xhci_dbg_trace:31: xhci_hcd 0000:09:00.3: Set TR Deq ptr 0xffff4450, cycle 1

[ 3405.949210] xhci_hcd:xhci_ring_cmd_db:360: xhci_hcd 0000:09:00.3: // Ding dong!
[ 3405.949214] xhci_hcd:xhci_giveback_invalidated_tds:898: xhci_hcd 0000:09:00.3: xhci_giveback_invalidated_tds: Keep cancelled URB 000000005496e9bb TD as cancel_status is 2
[ 3405.949237] xhci_hcd:xhci_dbg_trace:31: xhci_hcd 0000:09:00.3: Successful Set TR Deq Ptr cmd, deq = @ffff4450
[ 3405.949241] xhci_hcd:xhci_handle_cmd_set_deq:1414: xhci_hcd 0000:09:00.3: xhci_handle_cmd_set_deq: Giveback cancelled URB 000000005496e9bb TD
[ 3405.949244] xhci_hcd:xhci_td_cleanup:868: xhci_hcd 0000:09:00.3: Giveback URB 000000005496e9bb, len = 0, expected = 20, status = -32
[ 3405.949262] input input67: unable to receive magic message: -32
[ 3405.960181] xhci_hcd:process_bulk_intr_td:2490: xhci_hcd 0000:09:00.3: ep 0x81 - asked for 64 bytes, 44 bytes untransferred
[ 3405.976181] xhci_hcd:process_bulk_intr_td:2490: xhci_hcd 0000:09:00.3: ep 0x81 - asked for 64 bytes, 44 bytes untransferred
[ 3406.312217] xhci_hcd:process_bulk_intr_td:2490: xhci_hcd 0000:09:00.3: ep 0x81 - asked for 64 bytes, 44 bytes untransferred
[ 3406.328208] xhci_hcd:process_bulk_intr_td:2490: xhci_hcd 0000:09:00.3: ep 0x81 - asked for 64 bytes, 44 bytes untransferred
[ 3406.532220] xhci_hcd:process_bulk_intr_td:2490: xhci_hcd 0000:09:00.3: ep 0x81 - asked for 64 bytes, 44 bytes untransferred
[ 3406.548210] xhci_hcd:process_bulk_intr_td:2490: xhci_hcd 0000:09:00.3: ep 0x81 - asked for 64 bytes, 44 bytes untransferred
[ 3406.614752] acpi:acpi_device_set_power:171: ACPI: \_SB_.I2CD: PM: Power state change: D0 -> D3cold
[ 3406.615060] acpi:acpi_device_set_power:283: ACPI: \_SB_.I2CD: PM: Power state changed to D3hot
[ 3406.688562] acpi:acpi_device_set_power:171: ACPI: \_SB_.PCI0.GP17.AZAL: PM: Power state change: D0 -> D3cold
[ 3406.690057] acpi:__acpi_power_off:434: ACPI: \_SB_.PCI0.GP17.AZAL.PWRS: ACPI: PM: Power resource turned off
[ 3406.690059] acpi:acpi_device_set_power:283: ACPI: \_SB_.PCI0.GP17.AZAL: PM: Power state changed to D3cold

