[  104.699241] PM: suspend entry (s2idle)
[  104.713149] xhci_hcd 0000:09:00.3: ep 0x81 - asked for 64 bytes, 44 bytes untransferred
[  104.735432] Filesystems sync: 0.036 seconds
[  104.740862] Freezing user space processes
[  104.741150] xhci_hcd 0000:09:00.3: ep 0x81 - asked for 64 bytes, 44 bytes untransferred
[  104.742767] Freezing user space processes completed (elapsed 0.001 seconds)
[  104.742771] OOM killer disabled.
[  104.742772] Freezing remaining freezable tasks
[  104.743725] Freezing remaining freezable tasks completed (elapsed 0.000 seconds)
[  104.743727] printk: Suspending console(s) (use no_console_suspend to debug)
[  104.781138] xhci_hcd 0000:09:00.3: ep 0x81 - asked for 64 bytes, 44 bytes untransferred
[  104.785146] xhci_hcd 0000:09:00.3: ep 0x81 - asked for 64 bytes, 44 bytes untransferred
[  104.870353] xhci_hcd 0000:0b:00.3: Cancel URB 000000000e8b8519, dev 1.4.2.4, ep 0x82, starting at offset 0xfffa8030
[  104.870360] xhci_hcd 0000:0b:00.3: // Ding dong!
[  104.870364] xhci_hcd 0000:0b:00.3: Cancel URB 000000004c7503ce, dev 1.4.2.1, ep 0x82, starting at offset 0xfff01960
[  104.870367] xhci_hcd 0000:0b:00.3: // Ding dong!
[  104.870369] usb 5-1.5: usb suspend, wakeup 0
[  104.870391] usb 5-1.3: usb suspend, wakeup 0
[  104.870456] wlp6s0: deauthenticating from 8c:3b:ad:23:db:27 by local choice (Reason: 3=DEAUTH_LEAVING)
[  104.870490] cs35l41-hda i2c-CSC3551:00-cs35l41-hda.0: Asserting Reset
[  104.870529] usb 1-5: usb suspend, wakeup 0
[  104.870539] xhci_hcd 0000:09:00.3: Cancel URB 00000000c8f44c10, dev 4, ep 0x81, starting at offset 0xfffcc730
[  104.870543] xhci_hcd 0000:09:00.3: // Ding dong!
[  104.870551] xhci_hcd 0000:09:00.3: Cancel URB 00000000956bb2e4, dev 3, ep 0x83, starting at offset 0xfffe3090
[  104.870554] xhci_hcd 0000:09:00.3: // Ding dong!
[  104.870557] xhci_hcd 0000:09:00.3: Cancel URB 0000000063ae34a2, dev 2, ep 0x81, starting at offset 0xfffee220
[  104.870558] xhci_hcd 0000:09:00.3: // Ding dong!
[  104.870598] xhci_hcd 0000:09:00.3: Stopped on Transfer TRB for slot 3 ep 2
[  104.870601] xhci_hcd 0000:09:00.3: Removing canceled TD starting at 0xfffcc730 (dma) in stream 0 URB 00000000c8f44c10
[  104.870603] xhci_hcd 0000:09:00.3: Set TR Deq ptr 0xfffcc740, cycle 1

[  104.870604] xhci_hcd 0000:09:00.3: // Ding dong!
[  104.870606] xhci_hcd 0000:09:00.3: xhci_giveback_invalidated_tds: Keep cancelled URB 00000000c8f44c10 TD as cancel_status is 2
[  104.870609] xhci_hcd 0000:09:00.3: Stopped on Transfer TRB for slot 2 ep 6
[  104.870610] xhci_hcd 0000:09:00.3: Removing canceled TD starting at 0xfffe3090 (dma) in stream 0 URB 00000000956bb2e4
[  104.870612] xhci_hcd 0000:09:00.3: Set TR Deq ptr 0xfffe30a0, cycle 1

[  104.870612] xhci_hcd 0000:09:00.3: // Ding dong!
[  104.870614] xhci_hcd 0000:09:00.3: xhci_giveback_invalidated_tds: Keep cancelled URB 00000000956bb2e4 TD as cancel_status is 2
[  104.870616] xhci_hcd 0000:09:00.3: Stopped on Transfer TRB for slot 1 ep 2
[  104.870616] xhci_hcd 0000:09:00.3: Removing canceled TD starting at 0xfffee220 (dma) in stream 0 URB 0000000063ae34a2
[  104.870618] xhci_hcd 0000:09:00.3: Set TR Deq ptr 0xfffee230, cycle 1

[  104.870618] xhci_hcd 0000:09:00.3: // Ding dong!
[  104.870620] xhci_hcd 0000:09:00.3: xhci_giveback_invalidated_tds: Keep cancelled URB 0000000063ae34a2 TD as cancel_status is 2
[  104.870621] xhci_hcd 0000:09:00.3: Successful Set TR Deq Ptr cmd, deq = @fffcc740
[  104.870623] xhci_hcd 0000:09:00.3: xhci_handle_cmd_set_deq: Giveback cancelled URB 00000000c8f44c10 TD
[  104.870624] xhci_hcd 0000:09:00.3: Giveback URB 00000000c8f44c10, len = 0, expected = 16, status = -115
[  104.870626] xhci_hcd 0000:09:00.3: Successful Set TR Deq Ptr cmd, deq = @fffe30a0
[  104.870627] xhci_hcd 0000:09:00.3: xhci_handle_cmd_set_deq: Giveback cancelled URB 00000000956bb2e4 TD
[  104.870628] xhci_hcd 0000:09:00.3: Giveback URB 00000000956bb2e4, len = 0, expected = 32, status = -115
[  104.870636] xhci_hcd 0000:09:00.3: Successful Set TR Deq Ptr cmd, deq = @fffee230
[  104.870637] xhci_hcd 0000:09:00.3: xhci_handle_cmd_set_deq: Giveback cancelled URB 0000000063ae34a2 TD
[  104.870638] xhci_hcd 0000:09:00.3: Giveback URB 0000000063ae34a2, len = 0, expected = 64, status = -115
[  104.870650] xhci_hcd 0000:09:00.3: Cancel URB 000000007c746c6d, dev 4, ep 0x82, starting at offset 0xfffca010
[  104.870652] xhci_hcd 0000:09:00.3: // Ding dong!
[  104.870655] xhci_hcd 0000:09:00.3: Cancel URB 00000000114beb66, dev 3, ep 0x82, starting at offset 0xfffe5020
[  104.870657] xhci_hcd 0000:09:00.3: // Ding dong!
[  104.870667] xhci_hcd 0000:09:00.3: Stopped on Transfer TRB for slot 3 ep 4
[  104.870668] xhci_hcd 0000:09:00.3: Removing canceled TD starting at 0xfffca010 (dma) in stream 0 URB 000000007c746c6d
[  104.870670] xhci_hcd 0000:09:00.3: xhci_giveback_invalidated_tds: Giveback cancelled URB 000000007c746c6d TD
[  104.870673] xhci_hcd 0000:09:00.3: Stopped on Transfer TRB for slot 2 ep 4
[  104.870674] xhci_hcd 0000:09:00.3: Removing canceled TD starting at 0xfffe5020 (dma) in stream 0 URB 00000000114beb66
[  104.870675] xhci_hcd 0000:09:00.3: Set TR Deq ptr 0xfffe5030, cycle 1

[  104.870676] xhci_hcd 0000:09:00.3: // Ding dong!
[  104.870677] xhci_hcd 0000:09:00.3: xhci_giveback_invalidated_tds: Keep cancelled URB 00000000114beb66 TD as cancel_status is 2
[  104.870684] xhci_hcd 0000:09:00.3: Cancel URB 000000007e24bd21, dev 4, ep 0x82, starting at offset 0xfffca000
[  104.870686] xhci_hcd 0000:09:00.3: // Ding dong!
[  104.870701] xhci_hcd 0000:09:00.3: Successful Set TR Deq Ptr cmd, deq = @fffe5030
[  104.870702] xhci_hcd 0000:09:00.3: xhci_handle_cmd_set_deq: Giveback cancelled URB 00000000114beb66 TD
[  104.870703] xhci_hcd 0000:09:00.3: Giveback URB 00000000114beb66, len = 0, expected = 5, status = -115
[  104.870704] xhci_hcd 0000:09:00.3: Stopped on Transfer TRB for slot 3 ep 4
[  104.870705] xhci_hcd 0000:09:00.3: Removing canceled TD starting at 0xfffca000 (dma) in stream 0 URB 000000007e24bd21
[  104.870706] xhci_hcd 0000:09:00.3: Set TR Deq ptr 0xfffca010, cycle 1

[  104.870707] xhci_hcd 0000:09:00.3: // Ding dong!
[  104.870709] xhci_hcd 0000:09:00.3: xhci_giveback_invalidated_tds: Keep cancelled URB 000000007e24bd21 TD as cancel_status is 2
[  104.870716] xhci_hcd 0000:09:00.3: Cancel URB 000000002b4b369a, dev 3, ep 0x81, starting at offset 0xfffe7010
[  104.870717] xhci_hcd 0000:09:00.3: // Ding dong!
[  104.870735] xhci_hcd 0000:09:00.3: Successful Set TR Deq Ptr cmd, deq = @fffca010
[  104.870735] xhci_hcd 0000:09:00.3: xhci_handle_cmd_set_deq: Giveback cancelled URB 000000007e24bd21 TD
[  104.870736] xhci_hcd 0000:09:00.3: Giveback URB 000000007e24bd21, len = 0, expected = 1028, status = -115
[  104.870738] xhci_hcd 0000:09:00.3: Stopped on Transfer TRB for slot 2 ep 2
[  104.870739] xhci_hcd 0000:09:00.3: Removing canceled TD starting at 0xfffe7010 (dma) in stream 0 URB 000000002b4b369a
[  104.870740] xhci_hcd 0000:09:00.3: Set TR Deq ptr 0xfffe7020, cycle 1

[  104.870741] xhci_hcd 0000:09:00.3: // Ding dong!
[  104.870742] xhci_hcd 0000:09:00.3: xhci_giveback_invalidated_tds: Keep cancelled URB 000000002b4b369a TD as cancel_status is 2
[  104.870749] usb 1-4: usb suspend, wakeup 0
[  104.870768] xhci_hcd 0000:09:00.3: Successful Set TR Deq Ptr cmd, deq = @fffe7020
[  104.870769] xhci_hcd 0000:09:00.3: xhci_handle_cmd_set_deq: Giveback cancelled URB 000000002b4b369a TD
[  104.870770] xhci_hcd 0000:09:00.3: Giveback URB 000000002b4b369a, len = 0, expected = 33, status = -115
[  104.870806] hub 8-0:1.0: hub_suspend
[  104.870811] hub 7-0:1.0: hub_suspend
[  104.870814] hub 6-0:1.0: hub_suspend
[  104.870817] usb usb8: bus suspend, wakeup 0
[  104.870820] usb usb7: bus suspend, wakeup 0
[  104.870821] hub 4-0:1.0: hub_suspend
[  104.870824] usb usb6: bus suspend, wakeup 0
[  104.870825] hub 3-0:1.0: hub_suspend
[  104.870830] hub 2-0:1.0: hub_suspend
[  104.870830] usb usb4: bus suspend, wakeup 0
[  104.870835] usb usb3: bus suspend, wakeup 0
[  104.870838] usb usb2: bus suspend, wakeup 0
[  104.871145] xhci_hcd 0000:0b:00.3: Stopped on Transfer TRB for slot 7 ep 4
[  104.871147] xhci_hcd 0000:0b:00.3: Removing canceled TD starting at 0xfffa8030 (dma) in stream 0 URB 000000000e8b8519
[  104.871150] xhci_hcd 0000:0b:00.3: Set TR Deq ptr 0xfffa8040, cycle 1

[  104.871151] xhci_hcd 0000:0b:00.3: // Ding dong!
[  104.871153] xhci_hcd 0000:0b:00.3: xhci_giveback_invalidated_tds: Keep cancelled URB 000000000e8b8519 TD as cancel_status is 2
[  104.871155] xhci_hcd 0000:0b:00.3: Stopped on Transfer TRB for slot 6 ep 4
[  104.871156] xhci_hcd 0000:0b:00.3: Removing canceled TD starting at 0xfff01960 (dma) in stream 0 URB 000000004c7503ce
[  104.871157] xhci_hcd 0000:0b:00.3: Set TR Deq ptr 0xfff01970, cycle 0

[  104.871158] xhci_hcd 0000:0b:00.3: // Ding dong!
[  104.871160] xhci_hcd 0000:0b:00.3: xhci_giveback_invalidated_tds: Keep cancelled URB 000000004c7503ce TD as cancel_status is 2
[  104.871165] xhci_hcd 0000:0b:00.3: Successful Set TR Deq Ptr cmd, deq = @fffa8040
[  104.871166] xhci_hcd 0000:0b:00.3: xhci_handle_cmd_set_deq: Giveback cancelled URB 000000000e8b8519 TD
[  104.871168] xhci_hcd 0000:0b:00.3: Giveback URB 000000000e8b8519, len = 0, expected = 31, status = -115
[  104.871170] xhci_hcd 0000:0b:00.3: Successful Set TR Deq Ptr cmd, deq = @fff01970
[  104.871170] xhci_hcd 0000:0b:00.3: xhci_handle_cmd_set_deq: Giveback cancelled URB 000000004c7503ce TD
[  104.871171] xhci_hcd 0000:0b:00.3: Giveback URB 000000004c7503ce, len = 0, expected = 8, status = -115
[  104.871179] xhci_hcd 0000:0b:00.3: Cancel URB 00000000c99346c4, dev 1.4.2.1, ep 0x81, starting at offset 0xfff03000
[  104.871181] xhci_hcd 0000:0b:00.3: // Ding dong!
[  104.871184] xhci_hcd 0000:0b:00.3: Cancel URB 000000004ec920e7, dev 1.4.2.4, ep 0x81, starting at offset 0xfffa2980
[  104.871186] xhci_hcd 0000:0b:00.3: // Ding dong!
[  104.871191] xhci_hcd 0000:0b:00.4: config port 8-1 wake bits, portsc: 0x2a0, write: 0x202a0
[  104.871194] xhci_hcd 0000:0b:00.4: config port 7-1 wake bits, portsc: 0x2a0, write: 0x202a0
[  104.871196] xhci_hcd 0000:0b:00.4: xhci_suspend: stopping usb7 port polling.
[  104.871211] xhci_hcd 0000:0b:00.3: Stopped on Transfer TRB for slot 6 ep 2
[  104.871212] xhci_hcd 0000:0b:00.3: Removing canceled TD starting at 0xfff03000 (dma) in stream 0 URB 00000000c99346c4
[  104.871213] xhci_hcd 0000:0b:00.3: Set TR Deq ptr 0xfff03010, cycle 1

[  104.871213] xhci_hcd 0000:0b:00.4: // Setting command ring address to 0xffffe001
[  104.871214] xhci_hcd 0000:0b:00.3: // Ding dong!
[  104.871216] xhci_hcd 0000:0b:00.3: xhci_giveback_invalidated_tds: Keep cancelled URB 00000000c99346c4 TD as cancel_status is 2
[  104.871218] xhci_hcd 0000:0b:00.3: Stopped on Transfer TRB for slot 7 ep 2
[  104.871219] xhci_hcd 0000:0b:00.3: Removing canceled TD starting at 0xfffa2980 (dma) in stream 0 URB 000000004ec920e7
[  104.871220] xhci_hcd 0000:0b:00.3: Set TR Deq ptr 0xfffa2990, cycle 1

[  104.871220] xhci_hcd 0000:0b:00.3: // Ding dong!
[  104.871222] xhci_hcd 0000:0b:00.3: xhci_giveback_invalidated_tds: Keep cancelled URB 000000004ec920e7 TD as cancel_status is 2
[  104.871224] xhci_hcd 0000:0b:00.3: Successful Set TR Deq Ptr cmd, deq = @fff03010
[  104.871225] xhci_hcd 0000:0b:00.3: xhci_handle_cmd_set_deq: Giveback cancelled URB 00000000c99346c4 TD
[  104.871225] xhci_hcd 0000:0b:00.3: Giveback URB 00000000c99346c4, len = 0, expected = 8, status = -115
[  104.871227] xhci_hcd 0000:0b:00.3: Successful Set TR Deq Ptr cmd, deq = @fffa2990
[  104.871228] xhci_hcd 0000:0b:00.3: xhci_handle_cmd_set_deq: Giveback cancelled URB 000000004ec920e7 TD
[  104.871229] xhci_hcd 0000:0b:00.3: Giveback URB 000000004ec920e7, len = 0, expected = 8, status = -115
[  104.871239] xhci_hcd 0000:09:00.4: config port 4-1 wake bits, portsc: 0x2a0, write: 0x202a0
[  104.871242] xhci_hcd 0000:09:00.4: config port 3-1 wake bits, portsc: 0x2a0, write: 0x202a0
[  104.871243] xhci_hcd 0000:09:00.4: xhci_suspend: stopping usb3 port polling.
[  104.871587] xhci_hcd 0000:09:00.4: // Setting command ring address to 0xffffe001
[  104.872022] usb 5-1.4.2.4: usb suspend, wakeup 1
[  104.872120] xhci_hcd 0000:09:00.3: // Ding dong!
[  104.872144] xhci_hcd 0000:09:00.3: Stopped on No-op or Link TRB for slot 2 ep 7
[  104.872146] xhci_hcd 0000:09:00.3: Stopped on No-op or Link TRB for slot 2 ep 0
[  104.872151] xhci_hcd 0000:09:00.3: Set port 1-3 link state, portsc: 0x603, write 0x10661
[  104.872387] usb 5-1.4.2.1: usb suspend, wakeup 1
[  104.873121] usb 1-2: usb suspend, wakeup 0
[  104.883647] hub 5-1.4.2:1.0: hub_suspend
[  104.883651] xhci_hcd 0000:0b:00.3: Cancel URB 000000007694d9c5, dev 1.4.2, ep 0x81, starting at offset 0xfff16000
[  104.883658] xhci_hcd 0000:0b:00.3: // Ding dong!
[  104.883669] xhci_hcd 0000:0b:00.3: Stopped on Transfer TRB for slot 5 ep 2
[  104.883672] xhci_hcd 0000:0b:00.3: Removing canceled TD starting at 0xfff16000 (dma) in stream 0 URB 000000007694d9c5
[  104.883676] xhci_hcd 0000:0b:00.3: Set TR Deq ptr 0xfff16010, cycle 1

[  104.883678] xhci_hcd 0000:0b:00.3: // Ding dong!
[  104.883680] xhci_hcd 0000:0b:00.3: xhci_giveback_invalidated_tds: Keep cancelled URB 000000007694d9c5 TD as cancel_status is 2
[  104.883680] usb 1-3: usb suspend, wakeup 1
[  104.883704] xhci_hcd 0000:0b:00.3: Successful Set TR Deq Ptr cmd, deq = @fff16010
[  104.883706] xhci_hcd 0000:0b:00.3: xhci_handle_cmd_set_deq: Giveback cancelled URB 000000007694d9c5 TD
[  104.883708] xhci_hcd 0000:0b:00.3: Giveback URB 000000007694d9c5, len = 0, expected = 1, status = -115
[  104.883762] usb 5-1.4.2: usb suspend, wakeup 0
[  104.895685] hub 5-1.4:1.0: hub_suspend
[  104.895692] xhci_hcd 0000:0b:00.3: Cancel URB 000000005592b09b, dev 1.4, ep 0x81, starting at offset 0xffed9010
[  104.895700] xhci_hcd 0000:0b:00.3: // Ding dong!
[  104.895710] hub 1-0:1.0: hub_suspend
[  104.895716] xhci_hcd 0000:0b:00.3: Stopped on Transfer TRB for slot 3 ep 2
[  104.895721] xhci_hcd 0000:0b:00.3: Removing canceled TD starting at 0xffed9010 (dma) in stream 0 URB 000000005592b09b
[  104.895725] xhci_hcd 0000:0b:00.3: Set TR Deq ptr 0xffed9020, cycle 1

[  104.895727] xhci_hcd 0000:0b:00.3: // Ding dong!
[  104.895730] xhci_hcd 0000:0b:00.3: xhci_giveback_invalidated_tds: Keep cancelled URB 000000005592b09b TD as cancel_status is 2
[  104.895749] xhci_hcd 0000:0b:00.3: Successful Set TR Deq Ptr cmd, deq = @ffed9020
[  104.895753] xhci_hcd 0000:0b:00.3: xhci_handle_cmd_set_deq: Giveback cancelled URB 000000005592b09b TD
[  104.895756] xhci_hcd 0000:0b:00.3: Giveback URB 000000005592b09b, len = 0, expected = 1, status = -115
[  104.895759] usb usb1: bus suspend, wakeup 0
[  104.895765] xhci_hcd 0000:09:00.3: port 1-5 not suspended
[  104.895769] xhci_hcd 0000:09:00.3: port 1-4 not suspended
[  104.895772] xhci_hcd 0000:09:00.3: port 1-2 not suspended
[  104.895779] xhci_hcd 0000:09:00.3: // Ding dong!
[  104.895796] xhci_hcd 0000:09:00.3: Stopped on No-op or Link TRB for slot 4 ep 6
[  104.895802] xhci_hcd 0000:09:00.3: Stopped on No-op or Link TRB for slot 4 ep 3
[  104.895830] xhci_hcd 0000:09:00.3: Stopped on No-op or Link TRB for slot 4 ep 2
[  104.895834] xhci_hcd 0000:09:00.3: Stopped on No-op or Link TRB for slot 4 ep 0
[  104.895846] xhci_hcd 0000:09:00.3: // Ding dong!
[  104.895864] xhci_hcd 0000:09:00.3: Stopped on No-op or Link TRB for slot 3 ep 20
[  104.895869] xhci_hcd 0000:09:00.3: Stopped on No-op or Link TRB for slot 3 ep 19
[  104.895889] usb 5-1.4: usb suspend, wakeup 0
[  104.895919] xhci_hcd 0000:09:00.3: Stopped on No-op or Link TRB for slot 3 ep 6
[  104.895926] xhci_hcd 0000:09:00.3: Stopped on No-op or Link TRB for slot 3 ep 5
[  104.895931] xhci_hcd 0000:09:00.3: Stopped on No-op or Link TRB for slot 3 ep 3
[  104.895934] xhci_hcd 0000:09:00.3: Stopped on No-op or Link TRB for slot 3 ep 0
[  104.895949] xhci_hcd 0000:09:00.3: // Ding dong!
[  104.895961] xhci_hcd 0000:09:00.3: Stopped on No-op or Link TRB for slot 1 ep 3
[  104.905727] xhci_hcd 0000:09:00.3: config port 2-1 wake bits, portsc: 0x2a0, write: 0x202a0
[  104.905736] xhci_hcd 0000:09:00.3: config port 2-2 wake bits, portsc: 0x2a0, write: 0x202a0
[  104.905748] xhci_hcd 0000:09:00.3: config port 1-1 wake bits, portsc: 0x2a0, write: 0x202a0
[  104.905770] xhci_hcd 0000:09:00.3: xhci_suspend: stopping usb1 port polling.
[  104.905776] xhci_hcd 0000:09:00.3: // Setting command ring address to 0xffffe001
[  104.907705] hub 5-1:1.0: hub_suspend
[  104.907714] xhci_hcd 0000:0b:00.3: Cancel URB 00000000c9a9fa38, dev 1, ep 0x81, starting at offset 0xfff77000
[  104.907727] xhci_hcd 0000:0b:00.3: // Ding dong!
[  104.907744] xhci_hcd 0000:0b:00.3: Stopped on Transfer TRB for slot 1 ep 2
[  104.907750] xhci_hcd 0000:0b:00.3: Removing canceled TD starting at 0xfff77000 (dma) in stream 0 URB 00000000c9a9fa38
[  104.907755] xhci_hcd 0000:0b:00.3: Set TR Deq ptr 0xfff77010, cycle 1

[  104.907759] xhci_hcd 0000:0b:00.3: // Ding dong!
[  104.907763] xhci_hcd 0000:0b:00.3: xhci_giveback_invalidated_tds: Keep cancelled URB 00000000c9a9fa38 TD as cancel_status is 2
[  104.907770] xhci_hcd 0000:0b:00.3: Successful Set TR Deq Ptr cmd, deq = @fff77010
[  104.907773] xhci_hcd 0000:0b:00.3: xhci_handle_cmd_set_deq: Giveback cancelled URB 00000000c9a9fa38 TD
[  104.907776] xhci_hcd 0000:0b:00.3: Giveback URB 00000000c9a9fa38, len = 0, expected = 1, status = -115
[  104.907837] xhci_hcd 0000:0b:00.3: // Ding dong!
[  104.907853] xhci_hcd 0000:0b:00.3: Stopped on No-op or Link TRB for slot 1 ep 0
[  104.907873] xhci_hcd 0000:0b:00.3: Set port 5-1 link state, portsc: 0xe03, write 0x10e61
[  104.919761] usb 5-1: usb suspend, wakeup 0
[  104.931748] hub 5-0:1.0: hub_suspend
[  104.931838] usb usb5: bus suspend, wakeup 0
[  104.931916] xhci_hcd 0000:0b:00.3: config port 6-1 wake bits, portsc: 0x2a0, write: 0x202a0
[  104.931928] xhci_hcd 0000:0b:00.3: xhci_suspend: stopping usb5 port polling.
[  104.931940] xhci_hcd 0000:0b:00.3: // Setting command ring address to 0xffffe001
[  104.985824] PM: suspend devices took 0.242 seconds
[  104.987363] ACPI: EC: interrupt blocked
[  104.988457] xhci_hcd 0000:0b:00.4: wakeup: 1
[  104.988916] xhci_hcd 0000:0b:00.3: wakeup: 1
[  104.995480] xhci_hcd 0000:09:00.4: wakeup: 1
[  104.996370] xhci_hcd 0000:09:00.3: wakeup: 1
[  105.017055] xhci_hcd 0000:09:00.4: --> PCI D3cold
[  105.022149] xhci_hcd 0000:09:00.3: --> PCI D3cold
[  105.022313] xhci_hcd 0000:0b:00.4: --> PCI D3cold
[  105.022466] xhci_hcd 0000:0b:00.3: --> PCI D3cold
[  105.128858] PM: suspend debug: Waiting for 5 second(s).
